{
  "name": "freetype",
  "secfixes": {
    "2.7-r2": [
      "CVE-2018-6942"
    ],
    "2.7.1-r1": [
      "CVE-2017-8105",
      "CVE-2017-8287"
    ]
  },
  "apkurl": "{{urlprefix}}/{{distroversion}}/{{reponame}}/{{arch}}/{{pkg.name}}-{{pkg.ver}}.apk",
  "archs": [
    "aarch64",
    "armhf",
    "armv7",
    "mips64",
    "mips64el",
    "ppc64le",
    "s390x",
    "x86",
    "x86_64"
  ],
  "urlprefix": "https://dl-cdn.alpinelinux.org/alpine",
  "reponame": "main",
  "distroversion": "v3.5"
}