{
  "name": "irssi",
  "secfixes": {
    "0.8.21.r2": [
      "CVE-2017-10965",
      "CVE-2017-10966"
    ],
    "0.8.21-r1": [
      "CVE-2017-9468"
    ],
    "0.8.21-r0": [
      "CVE-2017-5193",
      "CVE-2017-5194",
      "CVE-2017-5356",
      "CVE-2017-5195",
      "CVE-2017-5196"
    ]
  },
  "apkurl": "{{urlprefix}}/{{distroversion}}/{{reponame}}/{{arch}}/{{pkg.name}}-{{pkg.ver}}.apk",
  "archs": [
    "aarch64",
    "armhf",
    "armv7",
    "mips64",
    "mips64el",
    "ppc64le",
    "s390x",
    "x86",
    "x86_64"
  ],
  "urlprefix": "https://dl-cdn.alpinelinux.org/alpine",
  "reponame": "main",
  "distroversion": "v3.5"
}