{
  "name": "lame",
  "secfixes": {
    "3.99.5-r6": [
      "CVE-2015-9099",
      "CVE-2015-9100",
      "CVE-2017-9410",
      "CVE-2017-9411",
      "CVE-2017-9412",
      "CVE-2017-11720"
    ]
  },
  "apkurl": "{{urlprefix}}/{{distroversion}}/{{reponame}}/{{arch}}/{{pkg.name}}-{{pkg.ver}}.apk",
  "archs": [
    "aarch64",
    "armhf",
    "armv7",
    "mips64",
    "mips64el",
    "ppc64le",
    "s390x",
    "x86",
    "x86_64"
  ],
  "urlprefix": "https://dl-cdn.alpinelinux.org/alpine",
  "reponame": "main",
  "distroversion": "v3.5"
}