{
  "name": "mupdf",
  "secfixes": {
    "1.10a-r3": [
      "CVE-2017-6060"
    ],
    "1.10a-r2": [
      "CVE-2017-5991"
    ],
    "1.10a-r1": [
      "CVE-2017-5896"
    ]
  },
  "apkurl": "{{urlprefix}}/{{distroversion}}/{{reponame}}/{{arch}}/{{pkg.name}}-{{pkg.ver}}.apk",
  "archs": [
    "aarch64",
    "armhf",
    "armv7",
    "mips64",
    "mips64el",
    "ppc64le",
    "s390x",
    "x86",
    "x86_64"
  ],
  "urlprefix": "https://dl-cdn.alpinelinux.org/alpine",
  "reponame": "main",
  "distroversion": "v3.5"
}