{
  "name": "samba",
  "secfixes": {
    "4.5.16-r1": [
      "CVE-2018-10858",
      "CVE-2018-10919"
    ],
    "4.5.16-r0": [
      "CVE-2018-1050",
      "CVE-2018-1057"
    ],
    "4.5.14-r0": [
      "CVE-2017-12150",
      "CVE-2017-12151",
      "CVE-2017-12163"
    ],
    "4.5.10-r1": [
      "CVE-2017-11103"
    ],
    "4.5.7-r0": [
      "CVE-2017-2619"
    ]
  },
  "apkurl": "{{urlprefix}}/{{distroversion}}/{{reponame}}/{{arch}}/{{pkg.name}}-{{pkg.ver}}.apk",
  "archs": [
    "aarch64",
    "armhf",
    "armv7",
    "mips64",
    "mips64el",
    "ppc64le",
    "s390x",
    "x86",
    "x86_64"
  ],
  "urlprefix": "https://dl-cdn.alpinelinux.org/alpine",
  "reponame": "main",
  "distroversion": "v3.5"
}