{
  "name": "wireshark",
  "secfixes": {
    "2.2.15-r0": [
      "CVE-2018-11356",
      "CVE-2018-11357",
      "CVE-2018-11358",
      "CVE-2018-11359",
      "CVE-2018-11360",
      "CVE-2018-11362"
    ],
    "2.2.14-r0": [
      "CVE-2018-9256",
      "CVE-2018-9257",
      "CVE-2018-9258",
      "CVE-2018-9260",
      "CVE-2018-9261",
      "CVE-2018-9262",
      "CVE-2018-9263",
      "CVE-2018-9264",
      "CVE-2018-9267",
      "CVE-2018-10194"
    ],
    "2.2.12-r0": [
      "CVE-2017-17997",
      "CVE-2018-5334",
      "CVE-2018-5335",
      "CVE-2018-5336"
    ],
    "2.2.11-r0": [
      "CVE-2017-17083",
      "CVE-2017-17084",
      "CVE-2017-17085"
    ],
    "2.2.10-r0": [
      "CVE-2017-15191",
      "CVE-2017-15192",
      "CVE-2017-15193"
    ],
    "2.2.9-r0": [
      "CVE-2017-13765",
      "CVE-2017-13766",
      "CVE-2017-13767"
    ],
    "2.2.8-r0": [
      "CVE-2017-11406",
      "CVE-2017-11407",
      "CVE-2017-11408"
    ],
    "2.2.7-r0": [
      "CVE-2017-9343",
      "CVE-2017-9344",
      "CVE-2017-9345",
      "CVE-2017-9346",
      "CVE-2017-9347",
      "CVE-2017-9348",
      "CVE-2017-9349",
      "CVE-2017-9350",
      "CVE-2017-9351",
      "CVE-2017-9352",
      "CVE-2017-9353",
      "CVE-2017-9354"
    ],
    "2.2.6-r0": [
      "CVE-2017-7700",
      "CVE-2017-7701",
      "CVE-2017-7702",
      "CVE-2017-7703",
      "CVE-2017-7704",
      "CVE-2017-7705"
    ],
    "- wnpa-sec-2017-18": [

    ],
    "- wnpa-sec-2017-19": [

    ],
    "- wnpa-sec-2017-20": [

    ],
    "- wnpa-sec-2017-21": [

    ],
    "2.2.5-r0": [
      "CVE-2017-6467",
      "CVE-2017-6468",
      "CVE-2017-6469",
      "CVE-2017-6470",
      "CVE-2017-6471",
      "CVE-2017-6472",
      "CVE-2017-6473",
      "CVE-2017-6474"
    ],
    "2.2.4-r1": [
      "CVE-2017-6014"
    ],
    "2.2.4-r0": [
      "CVE-2017-5596",
      "CVE-2017-5597"
    ],
    "2.0.5-r0": [
      "CVE-2016-6505",
      "CVE-2016-6506",
      "CVE-2016-6508",
      "CVE-2016-6509",
      "CVE-2016-6510",
      "CVE-2016-6511",
      "CVE-2016-6512",
      "CVE-2016-6513"
    ]
  },
  "apkurl": "{{urlprefix}}/{{distroversion}}/{{reponame}}/{{arch}}/{{pkg.name}}-{{pkg.ver}}.apk",
  "archs": [
    "aarch64",
    "armhf",
    "armv7",
    "mips64",
    "mips64el",
    "ppc64le",
    "s390x",
    "x86",
    "x86_64"
  ],
  "urlprefix": "https://dl-cdn.alpinelinux.org/alpine",
  "reponame": "main",
  "distroversion": "v3.5"
}