{
  "name": "xen",
  "secfixes": {
    "4.7.0-r0": [
      "CVE-2016-6258",
      "CVE-2016-6259",
      "CVE-2016-5403"
    ],
    "4.7.0-r1": [
      "CVE-2016-7092",
      "CVE-2016-7093",
      "CVE-2016-7094"
    ],
    "4.7.0-r5": [
      "CVE-2016-7777"
    ],
    "4.7.1-r1": [
      "CVE-2016-9386",
      "CVE-2016-9382",
      "CVE-2016-9385",
      "CVE-2016-9384",
      "CVE-2016-9383",
      "CVE-2016-9377",
      "CVE-2016-9378",
      "CVE-2016-9381",
      "CVE-2016-9379",
      "CVE-2016-9380"
    ],
    "4.7.1-r3": [
      "CVE-2016-9932",
      "CVE-2016-9815",
      "CVE-2016-9816",
      "CVE-2016-9817",
      "CVE-2016-9818"
    ],
    "4.7.1-r4": [
      "CVE-2016-10024",
      "CVE-2016-10025",
      "CVE-2016-10013"
    ],
    "4.7.1-r5": [

    ],
    "- XSA-207": [
      "CVE-2017-2615",
      "CVE-2017-2620"
    ],
    "- XSA-210": [

    ],
    "4.7.2-r0": [
      "CVE-2016-9603",
      "CVE-2017-7228"
    ],
    "4.7.2-r1": [
      "CVE-2017-8903",
      "CVE-2017-8904",
      "CVE-2017-8905"
    ],
    "4.7.2-r2": [
      "CVE-2017-14316",
      "CVE-2017-14318",
      "CVE-2017-14317",
      "CVE-2017-14319"
    ],
    "4.7.3-r0": [
      "CVE-2017-10911",
      "CVE-2017-10912",
      "CVE-2017-10913",
      "CVE-2017-10914",
      "CVE-2017-10915",
      "CVE-2017-10916",
      "CVE-2017-10917",
      "CVE-2017-10918",
      "CVE-2017-10919",
      "CVE-2017-10920",
      "CVE-2017-10921",
      "CVE-2017-10922",
      "CVE-2017-10923",
      "CVE-2017-12135",
      "CVE-2017-12137",
      "CVE-2017-12136",
      "CVE-2017-12855"
    ],
    "4.7.3-r2": [
      "CVE-2017-17044",
      "CVE-2017-17045"
    ],
    "4.7.3-r3": [
      "CVE-2017-15596",
      "CVE-2017-15597",
      "CVE-2017-15590",
      "CVE-2017-15591",
      "CVE-2017-15589",
      "CVE-2017-15595",
      "CVE-2017-15588",
      "CVE-2017-15593",
      "CVE-2017-15592",
      "CVE-2017-15594",
      "CVE-2017-17046"
    ],
    "4.7.3-r4": [
      "CVE-2017-5753",
      "CVE-2017-5715",
      "CVE-2017-5754"
    ],
    "4.7.3-r5": [
      "CVE-2017-17566",
      "CVE-2017-17563",
      "CVE-2017-17564",
      "CVE-2017-17565"
    ],
    "4.7.3-r7": [
      "CVE-2018-7540",
      "CVE-2018-7541"
    ],
    "4.7.3-r9": [
      "CVE-2018-10472",
      "CVE-2018-10471",
      "CVE-2018-8897",
      "CVE-2018-10982",
      "CVE-2018-10981"
    ],
    "4.7.6-r0": [
      "CVE-2018-3639",
      "CVE-2018-12891",
      "CVE-2018-12893",
      "CVE-2018-12892",
      "CVE-2018-3665"
    ]
  },
  "apkurl": "{{urlprefix}}/{{distroversion}}/{{reponame}}/{{arch}}/{{pkg.name}}-{{pkg.ver}}.apk",
  "archs": [
    "armhf",
    "x86_64"
  ],
  "urlprefix": "https://dl-cdn.alpinelinux.org/alpine",
  "reponame": "main",
  "distroversion": "v3.5"
}