{
  "name": "libpcap",
  "secfixes": {
    "1.9.1-r0": [
      "CVE-2018-16301",
      "CVE-2019-15161",
      "CVE-2019-15162",
      "CVE-2019-15163",
      "CVE-2019-15164",
      "CVE-2019-15165"
    ]
  },
  "apkurl": "{{urlprefix}}/{{distroversion}}/{{reponame}}/{{arch}}/{{pkg.name}}-{{pkg.ver}}.apk",
  "archs": [
    "aarch64",
    "armhf",
    "armv7",
    "mips64",
    "mips64el",
    "ppc64le",
    "s390x",
    "x86",
    "x86_64"
  ],
  "urlprefix": "https://dl-cdn.alpinelinux.org/alpine",
  "reponame": "main",
  "distroversion": "v3.15"
}