{
  "name": "libtasn1",
  "secfixes": {
    "4.14-r0": [
      "CVE-2018-1000654"
    ],
    "4.13-r0": [
      "CVE-2018-6003"
    ],
    "4.12-r1": [
      "CVE-2017-10790"
    ]
  },
  "apkurl": "{{urlprefix}}/{{distroversion}}/{{reponame}}/{{arch}}/{{pkg.name}}-{{pkg.ver}}.apk",
  "archs": [
    "aarch64",
    "armhf",
    "armv7",
    "mips64",
    "mips64el",
    "ppc64le",
    "s390x",
    "x86",
    "x86_64"
  ],
  "urlprefix": "https://dl-cdn.alpinelinux.org/alpine",
  "reponame": "main",
  "distroversion": "v3.15"
}