{
  "name": "openssl3",
  "secfixes": {
    "3.0.3-r0": [
      "CVE-2022-1292",
      "CVE-2022-1343",
      "CVE-2022-1434",
      "CVE-2022-1473"
    ],
    "3.0.2-r0": [
      "CVE-2022-0778",
      "CVE-2021-4044"
    ],
    "1.1.1l-r0": [
      "CVE-2021-3711",
      "CVE-2021-3712"
    ],
    "1.1.1k-r0": [
      "CVE-2021-3449",
      "CVE-2021-3450"
    ],
    "1.1.1j-r0": [
      "CVE-2021-23841",
      "CVE-2021-23840",
      "CVE-2021-23839"
    ],
    "1.1.1i-r0": [
      "CVE-2020-1971"
    ],
    "1.1.1g-r0": [
      "CVE-2020-1967"
    ],
    "1.1.1d-r3": [
      "CVE-2019-1551"
    ],
    "1.1.1d-r1": [
      "CVE-2019-1547",
      "CVE-2019-1549",
      "CVE-2019-1563"
    ],
    "1.1.1b-r1": [
      "CVE-2019-1543"
    ],
    "1.1.1a-r0": [
      "CVE-2018-0734",
      "CVE-2018-0735"
    ]
  },
  "apkurl": "{{urlprefix}}/{{distroversion}}/{{reponame}}/{{arch}}/{{pkg.name}}-{{pkg.ver}}.apk",
  "archs": [
    "aarch64",
    "armhf",
    "armv7",
    "mips64",
    "mips64el",
    "ppc64le",
    "s390x",
    "x86",
    "x86_64"
  ],
  "urlprefix": "https://dl-cdn.alpinelinux.org/alpine",
  "reponame": "main",
  "distroversion": "v3.15"
}