{
  "name": "p7zip",
  "secfixes": {
    "16.02-r3": [
      "CVE-2018-5996",
      "CVE-2018-10115"
    ],
    "16.02-r2": [
      "CVE-2017-17969"
    ],
    "16.02-r1": [
      "CVE-2016-9296"
    ]
  },
  "apkurl": "{{urlprefix}}/{{distroversion}}/{{reponame}}/{{arch}}/{{pkg.name}}-{{pkg.ver}}.apk",
  "archs": [
    "aarch64",
    "armhf",
    "armv7",
    "mips64",
    "mips64el",
    "ppc64le",
    "s390x",
    "x86",
    "x86_64"
  ],
  "urlprefix": "https://dl-cdn.alpinelinux.org/alpine",
  "reponame": "main",
  "distroversion": "v3.15"
}