{
  "name": "redis",
  "secfixes": {
    "6.2.7-r0": [
      "CVE-2022-24735",
      "CVE-2022-24736"
    ],
    "6.2.6-r0": [
      "CVE-2021-32626",
      "CVE-2021-32627",
      "CVE-2021-32628",
      "CVE-2021-32672",
      "CVE-2021-32675",
      "CVE-2021-32687",
      "CVE-2021-32762",
      "CVE-2021-41099"
    ],
    "6.2.5-r0": [
      "CVE-2021-32761"
    ],
    "6.2.4-r0": [
      "CVE-2021-32625"
    ],
    "6.2.0-r0": [
      "CVE-2021-21309",
      "CVE-2021-3470"
    ],
    "6.0.3-r0": [
      "CVE-2020-14147"
    ],
    "5.0.8-r0": [
      "CVE-2015-8080"
    ],
    "5.0.4-r0": [
      "CVE-2019-10192",
      "CVE-2019-10193"
    ]
  },
  "apkurl": "{{urlprefix}}/{{distroversion}}/{{reponame}}/{{arch}}/{{pkg.name}}-{{pkg.ver}}.apk",
  "archs": [
    "aarch64",
    "armhf",
    "armv7",
    "mips64",
    "mips64el",
    "ppc64le",
    "s390x",
    "x86",
    "x86_64"
  ],
  "urlprefix": "https://dl-cdn.alpinelinux.org/alpine",
  "reponame": "main",
  "distroversion": "v3.15"
}