{
  "name": "ruby",
  "secfixes": {
    "3.0.4-r0": [
      "CVE-2022-28738",
      "CVE-2022-28739"
    ],
    "3.0.3-r0": [
      "CVE-2021-41817",
      "CVE-2021-41816",
      "CVE-2021-41819"
    ],
    "2.7.4-r0": [
      "CVE-2021-31799",
      "CVE-2021-31810",
      "CVE-2021-32066"
    ],
    "2.7.3-r0": [
      "CVE-2021-28965",
      "CVE-2021-28966"
    ],
    "2.7.2-r0": [
      "CVE-2020-25613"
    ],
    "2.6.6-r0": [
      "CVE-2020-10663",
      "CVE-2020-10933"
    ],
    "2.6.5-r0": [
      "CVE-2019-16255",
      "CVE-2019-16254",
      "CVE-2019-15845",
      "CVE-2019-16201"
    ],
    "2.5.2-r0": [
      "CVE-2018-16395",
      "CVE-2018-16396"
    ],
    "2.5.1-r0": [
      "CVE-2017-17742",
      "CVE-2018-6914",
      "CVE-2018-8777",
      "CVE-2018-8778",
      "CVE-2018-8779",
      "CVE-2018-8780"
    ],
    "2.4.2-r0": [
      "CVE-2017-0898",
      "CVE-2017-10784",
      "CVE-2017-14033",
      "CVE-2017-14064",
      "CVE-2017-0899",
      "CVE-2017-0900",
      "CVE-2017-0901",
      "CVE-2017-0902"
    ],
    "2.4.3-r0": [
      "CVE-2017-17405"
    ],
    "": [

    ]
  },
  "apkurl": "{{urlprefix}}/{{distroversion}}/{{reponame}}/{{arch}}/{{pkg.name}}-{{pkg.ver}}.apk",
  "archs": [
    "aarch64",
    "armhf",
    "armv7",
    "mips64",
    "mips64el",
    "ppc64le",
    "s390x",
    "x86",
    "x86_64"
  ],
  "urlprefix": "https://dl-cdn.alpinelinux.org/alpine",
  "reponame": "main",
  "distroversion": "v3.15"
}