{
  "name": "libssh",
  "secfixes": {
    "0.9.4-r1": [
      "CVE-2020-16135"
    ],
    "0.9.4-r0": [
      "CVE-2020-1730"
    ],
    "0.9.3-r0": [
      "CVE-2019-14889"
    ],
    "0.7.6-r0": [
      "CVE-2018-10933"
    ]
  },
  "apkurl": "{{urlprefix}}/{{distroversion}}/{{reponame}}/{{arch}}/{{pkg.name}}-{{pkg.ver}}.apk",
  "archs": [
    "aarch64",
    "armhf",
    "armv7",
    "mips64",
    "mips64el",
    "ppc64le",
    "s390x",
    "x86",
    "x86_64"
  ],
  "urlprefix": "https://dl-cdn.alpinelinux.org/alpine",
  "reponame": "main",
  "distroversion": "v3.11"
}