{
  "name": "py3-django",
  "secfixes": {
    "1.11.29-r1": [
      "CVE-2020-24583",
      "CVE-2020-24584"
    ],
    "1.11.29-r0": [
      "CVE-2020-9402"
    ],
    "1.11.28-r0": [
      "CVE-2020-7471"
    ],
    "1.11.27-r0": [
      "CVE-2019-19844"
    ],
    "1.11.23-r0": [
      "CVE-2019-14232",
      "CVE-2019-14233",
      "CVE-2019-14234",
      "CVE-2019-14235"
    ],
    "1.11.22-r0": [
      "CVE-2019-12781"
    ],
    "1.8.16-r0": [
      "CVE-2016-9013",
      "CVE-2016-9014"
    ],
    "1.10.7-r0": [
      "CVE-2017-7233",
      "CVE-2017-7234"
    ],
    "1.11.5-r0": [
      "CVE-2017-12794"
    ],
    "1.11.10-r0": [
      "CVE-2018-6188"
    ],
    "1.11.11-r0": [
      "CVE-2018-7536",
      "CVE-2018-7537"
    ],
    "1.11.15-r0": [
      "CVE-2018-14574"
    ],
    "1.11.18-r0": [
      "CVE-2019-3498"
    ],
    "1.11.19-r0": [
      "CVE-2019-6975"
    ],
    "1.11.21-r0": [
      "CVE-2019-12308"
    ]
  },
  "apkurl": "{{urlprefix}}/{{distroversion}}/{{reponame}}/{{arch}}/{{pkg.name}}-{{pkg.ver}}.apk",
  "archs": [

  ],
  "urlprefix": "https://dl-cdn.alpinelinux.org/alpine",
  "reponame": "main",
  "distroversion": "v3.11"
}