{
  "name": "gnupg1",
  "secfixes": {
    "1.4.23-r0": [
      "CVE-2017-7526"
    ],
    "1.4.22-r1": [
      "CVE-2018-12020"
    ]
  },
  "apkurl": "{{urlprefix}}/{{distroversion}}/{{reponame}}/{{arch}}/{{pkg.name}}-{{pkg.ver}}.apk",
  "archs": [
    "aarch64",
    "armhf",
    "armv7",
    "mips64",
    "mips64el",
    "ppc64le",
    "s390x",
    "x86",
    "x86_64"
  ],
  "urlprefix": "https://dl-cdn.alpinelinux.org/alpine",
  "reponame": "unmaintained",
  "distroversion": "vedge"
}