{
  "name": "busybox",
  "secfixes": {
    "1.28.3-r2": [
      "CVE-2018-1000500"
    ],
    "1.27.2-r4": [
      "CVE-2017-16544",
      "CVE-2017-15873",
      "CVE-2017-15874"
    ]
  },
  "apkurl": "{{urlprefix}}/{{distroversion}}/{{reponame}}/{{arch}}/{{pkg.name}}-{{pkg.ver}}.apk",
  "archs": [
    "aarch64",
    "armhf",
    "armv7",
    "mips64",
    "mips64el",
    "ppc64le",
    "s390x",
    "x86",
    "x86_64"
  ],
  "urlprefix": "https://dl-cdn.alpinelinux.org/alpine",
  "reponame": "main",
  "distroversion": "v3.8"
}