{
  "name": "libxslt",
  "secfixes": {
    "1.1.33-r3": [
      "CVE-2019-13117",
      "CVE-2019-13118"
    ],
    "1.1.33-r2": [
      "CVE-2019-18197"
    ],
    "1.1.33-r1": [
      "CVE-2019-11068"
    ],
    "1.1.29-r1": [
      "CVE-2017-5029"
    ]
  },
  "apkurl": "{{urlprefix}}/{{distroversion}}/{{reponame}}/{{arch}}/{{pkg.name}}-{{pkg.ver}}.apk",
  "archs": [
    "aarch64",
    "armhf",
    "armv7",
    "mips64",
    "mips64el",
    "ppc64le",
    "s390x",
    "x86",
    "x86_64"
  ],
  "urlprefix": "https://dl-cdn.alpinelinux.org/alpine",
  "reponame": "main",
  "distroversion": "v3.8"
}