{
  "name": "nginx",
  "secfixes": {
    "1.14.2-r2": [
      "CVE-2019-20372"
    ],
    "1.14.1-r1": [
      "CVE-2019-9511",
      "CVE-2019-9513",
      "CVE-2019-9516"
    ],
    "1.14.1-r0": [
      "CVE-2018-16843",
      "CVE-2018-16844",
      "CVE-2018-16845"
    ],
    "1.12.1-r0": [
      "CVE-2017-7529"
    ],
    "": [

    ]
  },
  "apkurl": "{{urlprefix}}/{{distroversion}}/{{reponame}}/{{arch}}/{{pkg.name}}-{{pkg.ver}}.apk",
  "archs": [
    "aarch64",
    "armhf",
    "armv7",
    "mips64",
    "mips64el",
    "ppc64le",
    "s390x",
    "x86",
    "x86_64"
  ],
  "urlprefix": "https://dl-cdn.alpinelinux.org/alpine",
  "reponame": "main",
  "distroversion": "v3.8"
}