{
  "name": "sqlite",
  "secfixes": {
    "3.25.0-r4": [
      "CVE-2020-11655"
    ],
    "3.25.3-r3": [
      "CVE-2019-19242",
      "CVE-2019-19244"
    ],
    "3.25.3-r2": [
      "CVE-2019-16168"
    ],
    "3.25.3-r1": [
      "CVE-2019-8457"
    ],
    "3.25.3-r0": [
      "CVE-2018-20346"
    ]
  },
  "apkurl": "{{urlprefix}}/{{distroversion}}/{{reponame}}/{{arch}}/{{pkg.name}}-{{pkg.ver}}.apk",
  "archs": [
    "aarch64",
    "armhf",
    "armv7",
    "mips64",
    "mips64el",
    "ppc64le",
    "s390x",
    "x86",
    "x86_64"
  ],
  "urlprefix": "https://dl-cdn.alpinelinux.org/alpine",
  "reponame": "main",
  "distroversion": "v3.8"
}