{
  "name": "subversion",
  "secfixes": {
    "1.10.6-r0": [
      "CVE-2018-11782",
      "CVE-2019-0203"
    ],
    "1.10.4-r0": [
      "CVE-2018-11803"
    ],
    "1.9.7-r0": [
      "CVE-2017-9800"
    ]
  },
  "apkurl": "{{urlprefix}}/{{distroversion}}/{{reponame}}/{{arch}}/{{pkg.name}}-{{pkg.ver}}.apk",
  "archs": [
    "aarch64",
    "armhf",
    "armv7",
    "mips64",
    "mips64el",
    "ppc64le",
    "s390x",
    "x86",
    "x86_64"
  ],
  "urlprefix": "https://dl-cdn.alpinelinux.org/alpine",
  "reponame": "main",
  "distroversion": "v3.8"
}