{
  "name": "tiff",
  "secfixes": {
    "4.0.10-r3": [
      "CVE-2019-6128"
    ],
    "4.0.10-r2": [
      "CVE-2019-10927"
    ],
    "4.0.10-r1": [
      "CVE-2019-14973"
    ],
    "4.0.10-r0": [
      "CVE-2018-12900",
      "CVE-2018-18557",
      "CVE-2018-18661"
    ],
    "4.0.9-r7": [
      "CVE-2018-10779",
      "CVE-2018-17100",
      "CVE-2018-17101"
    ],
    "4.0.9-r6": [
      "CVE-2017-9935",
      "CVE-2017-11613",
      "CVE-2017-17095",
      "CVE-2018-10963"
    ],
    "4.0.9-r5": [
      "CVE-2018-8905"
    ],
    "4.0.9-r4": [
      "CVE-2018-7456"
    ],
    "4.0.9-r2": [
      "CVE-2018-5784"
    ],
    "4.0.9-r1": [
      "CVE-2017-18013"
    ],
    "4.0.9-r0": [
      "CVE-2017-16231",
      "CVE-2017-16232"
    ],
    "4.0.8-r1": [
      "CVE-2017-9936",
      "CVE-2017-10688"
    ],
    "4.0.7-r2": [
      "CVE-2017-7592",
      "CVE-2017-7593",
      "CVE-2017-7594",
      "CVE-2017-7595",
      "CVE-2017-7596",
      "CVE-2017-7598",
      "CVE-2017-7601",
      "CVE-2017-7602"
    ],
    "4.0.7-r1": [
      "CVE-2017-5225"
    ]
  },
  "apkurl": "{{urlprefix}}/{{distroversion}}/{{reponame}}/{{arch}}/{{pkg.name}}-{{pkg.ver}}.apk",
  "archs": [
    "aarch64",
    "armhf",
    "armv7",
    "mips64",
    "mips64el",
    "ppc64le",
    "s390x",
    "x86",
    "x86_64"
  ],
  "urlprefix": "https://dl-cdn.alpinelinux.org/alpine",
  "reponame": "main",
  "distroversion": "v3.8"
}