{
  "name": "varnish",
  "secfixes": {
    "6.0.4-r0": [
      "CVE-2019-15892"
    ],
    "5.2.1-r0": [
      "CVE-2017-8807"
    ],
    "5.1.3-r0": [
      "CVE-2017-12425"
    ]
  },
  "apkurl": "{{urlprefix}}/{{distroversion}}/{{reponame}}/{{arch}}/{{pkg.name}}-{{pkg.ver}}.apk",
  "archs": [
    "aarch64",
    "armhf",
    "armv7",
    "mips64",
    "mips64el",
    "ppc64le",
    "s390x",
    "x86",
    "x86_64"
  ],
  "urlprefix": "https://dl-cdn.alpinelinux.org/alpine",
  "reponame": "main",
  "distroversion": "v3.8"
}