{
  "name": "apache2",
  "secfixes": {
    "2.4.53-r0": [
      "CVE-2022-22719",
      "CVE-2022-22720",
      "CVE-2022-22721",
      "CVE-2022-23943"
    ],
    "2.4.52-r0": [
      "CVE-2021-44224",
      "CVE-2021-44790"
    ],
    "2.4.51-r0": [
      "CVE-2021-42013"
    ],
    "2.4.50-r0": [
      "CVE-2021-41524",
      "CVE-2021-41773"
    ],
    "2.4.49-r0": [
      "CVE-2021-40438",
      "CVE-2021-39275",
      "CVE-2021-36160",
      "CVE-2021-34798",
      "CVE-2021-33193"
    ],
    "2.4.48-r0": [
      "CVE-2019-17657",
      "CVE-2020-13938",
      "CVE-2020-13950",
      "CVE-2020-35452",
      "CVE-2021-26690",
      "CVE-2021-26691",
      "CVE-2021-30641",
      "CVE-2021-31618"
    ],
    "2.4.46-r0": [
      "CVE-2020-9490",
      "CVE-2020-11984",
      "CVE-2020-11993"
    ],
    "2.4.43-r0": [
      "CVE-2020-1927",
      "CVE-2020-1934"
    ],
    "2.4.41-r0": [
      "CVE-2019-9517",
      "CVE-2019-10081",
      "CVE-2019-10082",
      "CVE-2019-10092",
      "CVE-2019-10097",
      "CVE-2019-10098"
    ],
    "2.4.39-r0": [
      "CVE-2019-0196",
      "CVE-2019-0197",
      "CVE-2019-0211",
      "CVE-2019-0215",
      "CVE-2019-0217",
      "CVE-2019-0220"
    ],
    "2.4.38-r0": [
      "CVE-2018-17189",
      "CVE-2018-17199",
      "CVE-2019-0190"
    ],
    "2.4.35-r0": [
      "CVE-2018-11763"
    ],
    "2.4.34-r0": [
      "CVE-2018-1333",
      "CVE-2018-8011"
    ],
    "2.4.33-r0": [
      "CVE-2017-15710",
      "CVE-2017-15715",
      "CVE-2018-1283",
      "CVE-2018-1301",
      "CVE-2018-1302",
      "CVE-2018-1303",
      "CVE-2018-1312"
    ],
    "2.4.27-r1": [
      "CVE-2017-9798"
    ],
    "2.4.26-r0": [
      "CVE-2017-3167",
      "CVE-2017-3169",
      "CVE-2017-7659",
      "CVE-2017-7668",
      "CVE-2017-7679"
    ]
  },
  "apkurl": "{{urlprefix}}/{{distroversion}}/{{reponame}}/{{arch}}/{{pkg.name}}-{{pkg.ver}}.apk",
  "archs": [
    "aarch64",
    "armhf",
    "armv7",
    "mips64",
    "mips64el",
    "ppc64le",
    "s390x",
    "x86",
    "x86_64"
  ],
  "urlprefix": "https://dl-cdn.alpinelinux.org/alpine",
  "reponame": "main",
  "distroversion": "v3.12"
}