{
  "name": "botan",
  "secfixes": {
    "2.11.0-r6": [
      "CVE-2021-24115"
    ],
    "2.9.0-r0": [
      "CVE-2018-20187"
    ],
    "2.7.0-r0": [
      "CVE-2018-12435"
    ],
    "2.6.0-r0": [
      "CVE-2018-9860"
    ],
    "2.5.0-r0": [
      "CVE-2018-9127"
    ]
  },
  "apkurl": "{{urlprefix}}/{{distroversion}}/{{reponame}}/{{arch}}/{{pkg.name}}-{{pkg.ver}}.apk",
  "archs": [
    "aarch64",
    "armhf",
    "armv7",
    "mips64",
    "mips64el",
    "ppc64le",
    "s390x",
    "x86",
    "x86_64"
  ],
  "urlprefix": "https://dl-cdn.alpinelinux.org/alpine",
  "reponame": "main",
  "distroversion": "v3.12"
}