{
  "name": "samba",
  "secfixes": {
    "4.12.15-r0": [
      "CVE-2021-20254"
    ],
    "4.12.14-r0": [
      "CVE-2020-27840",
      "CVE-2021-20277"
    ],
    "4.12.9-r0": [
      "CVE-2020-14318",
      "CVE-2020-14323",
      "CVE-2020-14383"
    ],
    "4.12.7-r0": [
      "CVE-2020-1472"
    ],
    "4.12.5-r0": [
      "CVE-2020-10730",
      "CVE-2020-10745",
      "CVE-2020-10760",
      "CVE-2020-14303"
    ],
    "4.12.2-r0": [
      "CVE-2020-10700",
      "CVE-2020-10704"
    ],
    "4.11.5-r0": [
      "CVE-2019-14902",
      "CVE-2019-14907",
      "CVE-2019-19344"
    ],
    "4.11.3-r0": [
      "CVE-2019-14861",
      "CVE-2019-14870"
    ],
    "4.11.2-r0": [
      "CVE-2019-10218",
      "CVE-2019-14833"
    ],
    "4.10.8-r0": [
      "CVE-2019-10197"
    ],
    "4.10.5-r0": [
      "CVE-2019-12435",
      "CVE-2019-12436"
    ],
    "4.10.3-r0": [
      "CVE-2018-16860"
    ],
    "4.8.11-r0": [
      "CVE-2018-14629",
      "CVE-2019-3880"
    ],
    "4.8.7-r0": [
      "CVE-2018-16841",
      "CVE-2018-16851",
      "CVE-2018-16853"
    ],
    "4.8.4-r0": [
      "CVE-2018-1139",
      "CVE-2018-1140",
      "CVE-2018-10858",
      "CVE-2018-10918",
      "CVE-2018-10919"
    ],
    "4.7.6-r0": [
      "CVE-2018-1050",
      "CVE-2018-1057"
    ],
    "4.7.3-r0": [
      "CVE-2017-14746",
      "CVE-2017-15275"
    ],
    "4.7.0-r0": [
      "CVE-2017-12150",
      "CVE-2017-12151",
      "CVE-2017-12163"
    ],
    "4.6.1-r0": [
      "CVE-2017-2619"
    ]
  },
  "apkurl": "{{urlprefix}}/{{distroversion}}/{{reponame}}/{{arch}}/{{pkg.name}}-{{pkg.ver}}.apk",
  "archs": [
    "aarch64",
    "armhf",
    "armv7",
    "mips64",
    "mips64el",
    "ppc64le",
    "s390x",
    "x86",
    "x86_64"
  ],
  "urlprefix": "https://dl-cdn.alpinelinux.org/alpine",
  "reponame": "main",
  "distroversion": "v3.12"
}