{
  "name": "wpa_supplicant",
  "secfixes": {
    "2.9-r8": [
      "CVE-2021-30004"
    ],
    "2.9-r7": [
      "CVE-2021-27803"
    ],
    "2.9-r6": [
      "CVE-2021-0326"
    ],
    "2.9-r5": [
      "CVE-2019-16275"
    ],
    "2.7-r3": [
      "CVE-2019-11555"
    ],
    "2.7-r2": [
      "CVE-2019-9494",
      "CVE-2019-9495",
      "CVE-2019-9497",
      "CVE-2019-9498",
      "CVE-2019-9499"
    ],
    "2.6-r14": [
      "CVE-2018-14526"
    ],
    "2.6-r7": [
      "CVE-2017-13077",
      "CVE-2017-13078",
      "CVE-2017-13079",
      "CVE-2017-13080",
      "CVE-2017-13081",
      "CVE-2017-13082",
      "CVE-2017-13086",
      "CVE-2017-13087",
      "CVE-2017-13088"
    ]
  },
  "apkurl": "{{urlprefix}}/{{distroversion}}/{{reponame}}/{{arch}}/{{pkg.name}}-{{pkg.ver}}.apk",
  "archs": [
    "aarch64",
    "armhf",
    "armv7",
    "mips64",
    "mips64el",
    "ppc64le",
    "s390x",
    "x86",
    "x86_64"
  ],
  "urlprefix": "https://dl-cdn.alpinelinux.org/alpine",
  "reponame": "main",
  "distroversion": "v3.12"
}