{
  "name": "docker",
  "secfixes": {
    "20.10.11-r0": [
      "CVE-2021-41190"
    ],
    "20.10.9-r0": [
      "CVE-2021-41089",
      "CVE-2021-41091",
      "CVE-2021-41092"
    ],
    "20.10.3-r0": [
      "CVE-2021-21285",
      "CVE-2021-21284"
    ],
    "19.03.14-r0": [
      "CVE-2020-15257"
    ],
    "19.03.11-r0": [
      "CVE-2020-13401"
    ],
    "19.03.1-r0": [
      "CVE-2019-14271"
    ],
    "18.09.8-r0": [
      "CVE-2019-13509"
    ],
    "18.09.7-r0": [
      "CVE-2018-15664"
    ]
  },
  "apkurl": "{{urlprefix}}/{{distroversion}}/{{reponame}}/{{arch}}/{{pkg.name}}-{{pkg.ver}}.apk",
  "archs": [
    "aarch64",
    "armhf",
    "armv7",
    "mips64",
    "mips64el",
    "ppc64le",
    "s390x",
    "x86",
    "x86_64"
  ],
  "urlprefix": "https://dl-cdn.alpinelinux.org/alpine",
  "reponame": "community",
  "distroversion": "v3.14"
}