{
  "name": "drupal7",
  "secfixes": {
    "7.82-r0": [
      "CVE-2021-32610"
    ],
    "7.81-r0": [
      "CVE-2020-13672"
    ],
    "7.78-r0": [
      "CVE-2020-36193"
    ],
    "7.75-r0": [
      "CVE-2020-28948",
      "CVE-2020-28949"
    ],
    "7.74-r0": [
      "CVE-2020-13671"
    ],
    "7.73-r0": [
      "CVE-2020-13666"
    ],
    "7.72-r0": [
      "CVE-2020-13663"
    ],
    "7.70-r0": [
      "CVE-2020-11022",
      "CVE-2020-11023",
      "CVE-2020-13662"
    ],
    "7.66-r0": [
      "CVE-2018-11358"
    ],
    "7.65-r0": [
      "CVE-2019-6341"
    ],
    "7.62-r0": [
      "CVE-2018-1000888"
    ],
    "7.59-r0": [
      "CVE-2018-7602"
    ],
    "7.58-r0": [
      "CVE-2018-7600"
    ]
  },
  "apkurl": "{{urlprefix}}/{{distroversion}}/{{reponame}}/{{arch}}/{{pkg.name}}-{{pkg.ver}}.apk",
  "archs": [

  ],
  "urlprefix": "https://dl-cdn.alpinelinux.org/alpine",
  "reponame": "community",
  "distroversion": "v3.14"
}