{
  "name": "gitea",
  "secfixes": {
    "1.14.6-r0": [
      "CVE-2020-26160"
    ],
    "1.13.7-r0": [
      "CVE-2021-29272"
    ],
    "1.13.6-r0": [
      "CVE-2021-29134"
    ],
    "1.13.4-r0": [
      "CVE-2021-28378"
    ],
    "1.13.2-r0": [
      "CVE-2021-3382"
    ]
  },
  "apkurl": "{{urlprefix}}/{{distroversion}}/{{reponame}}/{{arch}}/{{pkg.name}}-{{pkg.ver}}.apk",
  "archs": [
    "armv7",
    "mips64el",
    "ppc64le",
    "s390x",
    "x86",
    "x86_64"
  ],
  "urlprefix": "https://dl-cdn.alpinelinux.org/alpine",
  "reponame": "community",
  "distroversion": "v3.14"
}