{
  "name": "grafana",
  "secfixes": {
    "7.4.5-r0": [
      "CVE-2021-28146",
      "CVE-2021-28147",
      "CVE-2021-28148",
      "CVE-2021-27962"
    ],
    "7.0.2-r0": [
      "CVE-2020-13379"
    ],
    "6.3.4-r0": [
      "CVE-2019-15043"
    ]
  },
  "apkurl": "{{urlprefix}}/{{distroversion}}/{{reponame}}/{{arch}}/{{pkg.name}}-{{pkg.ver}}.apk",
  "archs": [
    "aarch64",
    "armhf",
    "armv7",
    "mips64",
    "mips64el",
    "ppc64le",
    "s390x",
    "x86",
    "x86_64"
  ],
  "urlprefix": "https://dl-cdn.alpinelinux.org/alpine",
  "reponame": "community",
  "distroversion": "v3.14"
}