{
  "name": "miniupnpd",
  "secfixes": {
    "2.2.2-r0": [
      "CVE-2019-12107",
      "CVE-2019-12108",
      "CVE-2019-12109",
      "CVE-2019-12110",
      "CVE-2019-12111"
    ]
  },
  "apkurl": "{{urlprefix}}/{{distroversion}}/{{reponame}}/{{arch}}/{{pkg.name}}-{{pkg.ver}}.apk",
  "archs": [
    "aarch64",
    "armhf",
    "armv7",
    "mips64",
    "mips64el",
    "ppc64le",
    "s390x",
    "x86",
    "x86_64"
  ],
  "urlprefix": "https://dl-cdn.alpinelinux.org/alpine",
  "reponame": "community",
  "distroversion": "v3.14"
}