{
  "name": "openexr",
  "secfixes": {
    "2.5.4-r0": [
      "CVE-2021-3477",
      "CVE-2021-3478",
      "CVE-2021-3479"
    ],
    "2.5.2-r0": [
      "CVE-2020-15304",
      "CVE-2020-15305",
      "CVE-2020-15306"
    ]
  },
  "apkurl": "{{urlprefix}}/{{distroversion}}/{{reponame}}/{{arch}}/{{pkg.name}}-{{pkg.ver}}.apk",
  "archs": [
    "aarch64",
    "armhf",
    "armv7",
    "mips64el",
    "ppc64le",
    "s390x",
    "x86",
    "x86_64"
  ],
  "urlprefix": "https://dl-cdn.alpinelinux.org/alpine",
  "reponame": "community",
  "distroversion": "v3.14"
}