{
  "name": "pdns-recursor",
  "secfixes": {
    "4.3.5-r0": [
      "CVE-2020-25829"
    ],
    "4.3.2-r0": [
      "CVE-2020-14196"
    ],
    "4.3.1-r0": [
      "CVE-2020-10995",
      "CVE-2020-12244"
    ],
    "4.1.9-r0": [
      "CVE-2019-3806",
      "CVE-2019-3807"
    ],
    "4.1.8-r0": [
      "CVE-2018-16855"
    ],
    "4.1.7-r0": [
      "CVE-2018-10851",
      "CVE-2018-14644",
      "CVE-2018-14626"
    ],
    "4.1.1-r0": [
      "CVE-2018-1000003"
    ],
    "4.0.7-r0": [
      "CVE-2017-15090",
      "CVE-2017-15092",
      "CVE-2017-15093",
      "CVE-2017-15094"
    ]
  },
  "apkurl": "{{urlprefix}}/{{distroversion}}/{{reponame}}/{{arch}}/{{pkg.name}}-{{pkg.ver}}.apk",
  "archs": [
    "aarch64",
    "armhf",
    "armv7",
    "mips64el",
    "ppc64le",
    "x86",
    "x86_64"
  ],
  "urlprefix": "https://dl-cdn.alpinelinux.org/alpine",
  "reponame": "community",
  "distroversion": "v3.14"
}