{
  "name": "webkit2gtk",
  "secfixes": {
    "2.32.3-r0": [
      "CVE-2021-21775",
      "CVE-2021-21779",
      "CVE-2021-30663",
      "CVE-2021-30665",
      "CVE-2021-30689",
      "CVE-2021-30720",
      "CVE-2021-30734",
      "CVE-2021-30744",
      "CVE-2021-30749",
      "CVE-2021-30795",
      "CVE-2021-30797",
      "CVE-2021-30799"
    ],
    "2.32.2-r0": [
      "CVE-2021-30758"
    ],
    "2.32.0-r0": [
      "CVE-2021-1788",
      "CVE-2021-1844",
      "CVE-2021-1871",
      "CVE-2021-30682"
    ],
    "2.30.6-r0": [
      "CVE-2020-27918",
      "CVE-2020-29623",
      "CVE-2021-1765",
      "CVE-2021-1789",
      "CVE-2021-1799",
      "CVE-2021-1801",
      "CVE-2021-1870",
      "CVE-2021-21806"
    ],
    "2.30.5-r0": [
      "CVE-2020-9947",
      "CVE-2020-13558"
    ],
    "2.30.3-r0": [
      "CVE-2020-9983",
      "CVE-2020-13543",
      "CVE-2020-13584"
    ],
    "2.30.0-r0": [
      "CVE-2020-9948",
      "CVE-2020-9951",
      "CVE-2021-1817",
      "CVE-2021-1820",
      "CVE-2021-1825",
      "CVE-2021-1826",
      "CVE-2021-30661"
    ],
    "2.28.4-r0": [
      "CVE-2020-9862",
      "CVE-2020-9893",
      "CVE-2020-9894",
      "CVE-2020-9895",
      "CVE-2020-9915",
      "CVE-2020-9925"
    ],
    "2.28.3-r0": [
      "CVE-2020-13753",
      "CVE-2020-9802",
      "CVE-2020-9803",
      "CVE-2020-9805",
      "CVE-2020-9806",
      "CVE-2020-9807",
      "CVE-2020-9843",
      "CVE-2020-9850",
      "CVE-2020-9952"
    ],
    "2.28.1-r0": [
      "CVE-2020-11793"
    ],
    "2.28.0-r0": [
      "CVE-2020-10018",
      "CVE-2021-30762"
    ],
    "2.26.3-r0": [
      "CVE-2019-8835",
      "CVE-2019-8844",
      "CVE-2019-8846"
    ],
    "2.26.2-r0": [
      "CVE-2019-8812",
      "CVE-2019-8814"
    ],
    "2.26.1-r0": [
      "CVE-2019-8783",
      "CVE-2019-8811",
      "CVE-2019-8813",
      "CVE-2019-8816",
      "CVE-2019-8819",
      "CVE-2019-8820",
      "CVE-2019-8823"
    ],
    "2.26.0-r0": [
      "CVE-2019-8625",
      "CVE-2019-8710",
      "CVE-2019-8720",
      "CVE-2019-8743",
      "CVE-2019-8764",
      "CVE-2019-8766",
      "CVE-2019-8769",
      "CVE-2019-8771",
      "CVE-2019-8782",
      "CVE-2019-8815",
      "CVE-2021-30666",
      "CVE-2021-30761"
    ],
    "2.24.4-r0": [
      "CVE-2019-8674",
      "CVE-2019-8707",
      "CVE-2019-8719",
      "CVE-2019-8733",
      "CVE-2019-8763",
      "CVE-2019-8765",
      "CVE-2019-8768",
      "CVE-2019-8821",
      "CVE-2019-8822"
    ],
    "2.24.3-r0": [
      "CVE-2019-8644",
      "CVE-2019-8649",
      "CVE-2019-8658",
      "CVE-2019-8666",
      "CVE-2019-8669",
      "CVE-2019-8671",
      "CVE-2019-8672",
      "CVE-2019-8673",
      "CVE-2019-8676",
      "CVE-2019-8677",
      "CVE-2019-8678",
      "CVE-2019-8679",
      "CVE-2019-8680",
      "CVE-2019-8681",
      "CVE-2019-8683",
      "CVE-2019-8684",
      "CVE-2019-8686",
      "CVE-2019-8687",
      "CVE-2019-8688",
      "CVE-2019-8689",
      "CVE-2019-8690",
      "CVE-2019-8726"
    ],
    "2.24.2-r0": [
      "CVE-2019-8735"
    ],
    "2.24.1-r0": [
      "CVE-2019-6251",
      "CVE-2019-8506",
      "CVE-2019-8524",
      "CVE-2019-8535",
      "CVE-2019-8536",
      "CVE-2019-8544",
      "CVE-2019-8551",
      "CVE-2019-8558",
      "CVE-2019-8559",
      "CVE-2019-8563",
      "CVE-2019-11070"
    ],
    "2.22.7-r0": [
      "CVE-2018-4437",
      "CVE-2019-6212",
      "CVE-2019-6215",
      "CVE-2019-6216",
      "CVE-2019-6217",
      "CVE-2019-6227",
      "CVE-2019-6229"
    ],
    "2.22.4-r0": [
      "CVE-2018-4372"
    ],
    "2.18.4-r0": [
      "CVE-2017-7156",
      "CVE-2017-7157",
      "CVE-2017-13856",
      "CVE-2017-13866",
      "CVE-2017-13870"
    ],
    "2.14.5-r0": [
      "CVE-2017-2350",
      "CVE-2017-2354",
      "CVE-2017-2355",
      "CVE-2017-2356",
      "CVE-2017-2362",
      "CVE-2017-2363",
      "CVE-2017-2364",
      "CVE-2017-2365",
      "CVE-2017-2366",
      "CVE-2017-2369",
      "CVE-2017-2371",
      "CVE-2017-2373"
    ]
  },
  "apkurl": "{{urlprefix}}/{{distroversion}}/{{reponame}}/{{arch}}/{{pkg.name}}-{{pkg.ver}}.apk",
  "archs": [
    "aarch64",
    "armhf",
    "armv7",
    "mips64el",
    "ppc64le",
    "s390x",
    "x86",
    "x86_64"
  ],
  "urlprefix": "https://dl-cdn.alpinelinux.org/alpine",
  "reponame": "community",
  "distroversion": "v3.14"
}