{
  "name": "faad2",
  "secfixes": {
    "2.9.0-r0": [
      "CVE-2019-6956",
      "CVE-2018-20196",
      "CVE-2018-20199",
      "CVE-2018-20360",
      "CVE-2018-20362",
      "CVE-2018-19504",
      "CVE-2018-20195",
      "CVE-2018-20198",
      "CVE-2018-20358",
      "CVE-2018-20194",
      "CVE-2018-19503",
      "CVE-2018-20197",
      "CVE-2018-20357",
      "CVE-2018-20359",
      "CVE-2018-20361",
      "CVE-2019-15296",
      "CVE-2018-19502"
    ]
  },
  "apkurl": "{{urlprefix}}/{{distroversion}}/{{reponame}}/{{arch}}/{{pkg.name}}-{{pkg.ver}}.apk",
  "archs": [
    "aarch64",
    "armhf",
    "armv7",
    "mips64",
    "mips64el",
    "ppc64le",
    "s390x",
    "x86",
    "x86_64"
  ],
  "urlprefix": "https://dl-cdn.alpinelinux.org/alpine",
  "reponame": "community",
  "distroversion": "v3.12"
}