{
  "name": "firefox",
  "secfixes": {
    "84.0.2-r0": [
      "CVE-2020-16044"
    ],
    "84.0.1-r0": [
      "CVE-2020-16042",
      "CVE-2020-26971",
      "CVE-2020-26972",
      "CVE-2020-26973",
      "CVE-2020-26974",
      "CVE-2020-26975",
      "CVE-2020-26976",
      "CVE-2020-26977",
      "CVE-2020-26978",
      "CVE-2020-26979",
      "CVE-2020-35111",
      "CVE-2020-35112",
      "CVE-2020-35113",
      "CVE-2020-35114"
    ],
    "83.0-r0": [
      "CVE-2020-15999",
      "CVE-2020-16012",
      "CVE-2020-26952",
      "CVE-2020-26953",
      "CVE-2020-26954",
      "CVE-2020-26955",
      "CVE-2020-26956",
      "CVE-2020-26957",
      "CVE-2020-26958",
      "CVE-2020-26959",
      "CVE-2020-26960",
      "CVE-2020-26961",
      "CVE-2020-26962",
      "CVE-2020-26963",
      "CVE-2020-26964",
      "CVE-2020-26965",
      "CVE-2020-26966",
      "CVE-2020-26967",
      "CVE-2020-26968",
      "CVE-2020-26969"
    ],
    "82.0.3-r0": [
      "CVE-2020-26950"
    ],
    "82.0-r0": [
      "CVE-2020-15254",
      "CVE-2020-15680",
      "CVE-2020-15681",
      "CVE-2020-15682",
      "CVE-2020-15683",
      "CVE-2020-15684",
      "CVE-2020-15969"
    ],
    "81.0-r0": [
      "CVE-2020-15673",
      "CVE-2020-15674",
      "CVE-2020-15675",
      "CVE-2020-15676",
      "CVE-2020-15677",
      "CVE-2020-15678"
    ],
    "80.0-r0": [
      "CVE-2020-6829",
      "CVE-2020-12400",
      "CVE-2020-12401",
      "CVE-2020-15663",
      "CVE-2020-15664",
      "CVE-2020-15665",
      "CVE-2020-15666",
      "CVE-2020-15667",
      "CVE-2020-15668",
      "CVE-2020-15670"
    ],
    "79.0-r0": [
      "CVE-2020-6463",
      "CVE-2020-6514",
      "CVE-2020-15652",
      "CVE-2020-15653",
      "CVE-2020-15654",
      "CVE-2020-15655",
      "CVE-2020-15656",
      "CVE-2020-15657",
      "CVE-2020-15658",
      "CVE-2020-15659"
    ],
    "78.0-r0": [
      "CVE-2020-12415",
      "CVE-2020-12416",
      "CVE-2020-12417",
      "CVE-2020-12418",
      "CVE-2020-12419",
      "CVE-2020-12420",
      "CVE-2020-12402",
      "CVE-2020-12421",
      "CVE-2020-12422",
      "CVE-2020-12423",
      "CVE-2020-12424",
      "CVE-2020-12425",
      "CVE-2020-12426"
    ],
    "77.0-r0": [
      "CVE-2020-12399",
      "CVE-2020-12405",
      "CVE-2020-12406",
      "CVE-2020-12407",
      "CVE-2020-12408",
      "CVE-2020-12409",
      "CVE-2020-12411"
    ],
    "76.0-r0": [
      "CVE-2020-6831",
      "CVE-2020-12387",
      "CVE-2020-12388",
      "CVE-2020-12389",
      "CVE-2020-12390",
      "CVE-2020-12391",
      "CVE-2020-12392",
      "CVE-2020-12393",
      "CVE-2020-12394",
      "CVE-2020-12395",
      "CVE-2020-12396"
    ],
    "75.0-r0": [
      "CVE-2020-6821",
      "CVE-2020-6822",
      "CVE-2020-6823",
      "CVE-2020-6824",
      "CVE-2020-6825",
      "CVE-2020-6826"
    ],
    "74.0.1-r0": [
      "CVE-2020-6819",
      "CVE-2020-6820"
    ],
    "74.0-r0": [
      "CVE-2020-6805",
      "CVE-2020-6806",
      "CVE-2020-6807",
      "CVE-2020-6808",
      "CVE-2020-6809",
      "CVE-2020-6810",
      "CVE-2020-6811",
      "CVE-2019-20503",
      "CVE-2020-6812",
      "CVE-2020-6813",
      "CVE-2020-6814",
      "CVE-2020-6815"
    ],
    "71.0.1-r0": [
      "CVE-2019-17016",
      "CVE-2019-17017",
      "CVE-2019-17020",
      "CVE-2019-17022",
      "CVE-2019-17023",
      "CVE-2019-17024",
      "CVE-2019-17025",
      "CVE-2019-17026"
    ],
    "70.0-r0": [
      "CVE-2018-6156",
      "CVE-2019-15903",
      "CVE-2019-11757",
      "CVE-2019-11759",
      "CVE-2019-11760",
      "CVE-2019-11761",
      "CVE-2019-11762",
      "CVE-2019-11763",
      "CVE-2019-11764",
      "CVE-2019-11765",
      "CVE-2019-17000",
      "CVE-2019-17001",
      "CVE-2019-17002"
    ],
    "68.0.2-r0": [
      "CVE-2019-11733"
    ]
  },
  "apkurl": "{{urlprefix}}/{{distroversion}}/{{reponame}}/{{arch}}/{{pkg.name}}-{{pkg.ver}}.apk",
  "archs": [
    "aarch64",
    "mips64el",
    "x86",
    "x86_64"
  ],
  "urlprefix": "https://dl-cdn.alpinelinux.org/alpine",
  "reponame": "community",
  "distroversion": "v3.12"
}