{
  "name": "graphicsmagick",
  "secfixes": {
    "1.3.35-r2": [
      "CVE-2020-12672"
    ],
    "1.3.35-r0": [
      "CVE-2020-10938"
    ],
    "1.3.32-r0": [
      "CVE-2018-18544",
      "CVE-2018-20189",
      "CVE-2019-7397",
      "CVE-2019-11473",
      "CVE-2019-11474",
      "CVE-2019-12921"
    ],
    "1.3.30-r0": [
      "CVE-2016-2317"
    ],
    "1.3.29-r0": [
      "CVE-2018-9018"
    ],
    "1.3.28-r0": [
      "CVE-2018-5685",
      "CVE-2018-6799"
    ],
    "1.3.27-r0": [
      "CVE-2017-11102",
      "CVE-2017-11139",
      "CVE-2017-11140",
      "CVE-2017-11636",
      "CVE-2017-11637",
      "CVE-2017-11638",
      "CVE-2017-11641",
      "CVE-2017-11643",
      "CVE-2017-13066",
      "CVE-2017-13134",
      "CVE-2017-13147",
      "CVE-2017-13736",
      "CVE-2017-13737",
      "CVE-2017-14314",
      "CVE-2017-14504",
      "CVE-2017-14649",
      "CVE-2017-14733",
      "CVE-2017-14994",
      "CVE-2017-14997",
      "CVE-2017-15238",
      "CVE-2017-15277",
      "CVE-2017-15930",
      "CVE-2017-16352",
      "CVE-2017-16353",
      "CVE-2017-16545",
      "CVE-2017-16547",
      "CVE-2017-16669",
      "CVE-2017-17498",
      "CVE-2017-17500",
      "CVE-2017-17501",
      "CVE-2017-17502",
      "CVE-2017-17503",
      "CVE-2017-17782",
      "CVE-2017-17783",
      "CVE-2017-18219",
      "CVE-2017-18220",
      "CVE-2017-18229",
      "CVE-2017-18230",
      "CVE-2017-18231"
    ],
    "1.3.26-r5": [
      "CVE-2017-13065",
      "CVE-2017-13648",
      "CVE-2017-14042",
      "CVE-2017-14103",
      "CVE-2017-14165"
    ],
    "1.3.26-r3": [
      "CVE-2017-13775",
      "CVE-2017-13776",
      "CVE-2017-13777"
    ],
    "1.3.26-r2": [
      "CVE-2017-11642",
      "CVE-2017-11722",
      "CVE-2017-12935",
      "CVE-2017-12936",
      "CVE-2017-12937",
      "CVE-2017-13063",
      "CVE-2017-13064"
    ],
    "1.3.26-r0": [
      "CVE-2016-7800",
      "CVE-2016-7996",
      "CVE-2016-7997",
      "CVE-2016-8682",
      "CVE-2016-8683",
      "CVE-2016-8684",
      "CVE-2016-9830",
      "CVE-2017-6335",
      "CVE-2017-10794",
      "CVE-2017-10799",
      "CVE-2017-10800"
    ],
    "1.3.25-r2": [
      "CVE-2017-11403"
    ],
    "1.3.25-r0": [
      "CVE-2016-7447",
      "CVE-2016-7448",
      "CVE-2016-7449"
    ]
  },
  "apkurl": "{{urlprefix}}/{{distroversion}}/{{reponame}}/{{arch}}/{{pkg.name}}-{{pkg.ver}}.apk",
  "archs": [
    "aarch64",
    "armhf",
    "armv7",
    "mips64",
    "mips64el",
    "ppc64le",
    "s390x",
    "x86",
    "x86_64"
  ],
  "urlprefix": "https://dl-cdn.alpinelinux.org/alpine",
  "reponame": "community",
  "distroversion": "v3.12"
}