{
  "name": "libmspack",
  "secfixes": {
    "0.10.1_alpha-r0": [
      "CVE-2019-1010305"
    ],
    "0.8_alpha-r0": [
      "CVE-2018-18584",
      "CVE-2018-18585",
      "CVE-2018-18586"
    ],
    "0.7.1_alpha-r0": [
      "CVE-2018-14679",
      "CVE-2018-14680",
      "CVE-2018-14681",
      "CVE-2018-14682"
    ],
    "0.5_alpha-r1": [
      "CVE-2017-6419",
      "CVE-2017-11423"
    ]
  },
  "apkurl": "{{urlprefix}}/{{distroversion}}/{{reponame}}/{{arch}}/{{pkg.name}}-{{pkg.ver}}.apk",
  "archs": [
    "aarch64",
    "armhf",
    "armv7",
    "mips64",
    "mips64el",
    "ppc64le",
    "s390x",
    "x86",
    "x86_64"
  ],
  "urlprefix": "https://dl-cdn.alpinelinux.org/alpine",
  "reponame": "community",
  "distroversion": "v3.12"
}