{
  "name": "phpmyadmin",
  "secfixes": {
    "5.0.2-r0": [
      "CVE-2020-10802",
      "CVE-2020-10803",
      "CVE-2020-10804"
    ],
    "5.0.1-r0": [
      "CVE-2020-5504"
    ],
    "4.9.2-r0": [
      "CVE-2019-18622",
      "CVE-2019-19617"
    ],
    "4.9.1-r0": [
      "CVE-2019-12922"
    ],
    "4.9.0.1-r0": [
      "CVE-2019-11768",
      "CVE-2019-12616"
    ],
    "4.8.5-r0": [
      "CVE-2019-6798",
      "CVE-2019-6799"
    ],
    "4.8.4-r0": [
      "CVE-2018-19968",
      "CVE-2018-19969",
      "CVE-2018-19970"
    ],
    "4.8.2-r0": [
      "CVE-2018-12581",
      "CVE-2018-12613"
    ],
    "4.8.0.-r1": [
      "CVE-2018-10188"
    ],
    "4.6.5.2-r0": [
      "CVE-2016-9847",
      "CVE-2016-9848",
      "CVE-2016-9849",
      "CVE-2016-9850",
      "CVE-2016-9851",
      "CVE-2016-9852",
      "CVE-2016-9853",
      "CVE-2016-9854",
      "CVE-2016-9855",
      "CVE-2016-9856",
      "CVE-2016-9857",
      "CVE-2016-9858",
      "CVE-2016-9859",
      "CVE-2016-9860",
      "CVE-2016-9861",
      "CVE-2016-9862",
      "CVE-2016-9863",
      "CVE-2016-9864",
      "CVE-2016-9865",
      "CVE-2016-9866"
    ]
  },
  "apkurl": "{{urlprefix}}/{{distroversion}}/{{reponame}}/{{arch}}/{{pkg.name}}-{{pkg.ver}}.apk",
  "archs": [

  ],
  "urlprefix": "https://dl-cdn.alpinelinux.org/alpine",
  "reponame": "community",
  "distroversion": "v3.12"
}