{
  "name": "py3-ecdsa",
  "secfixes": {
    "0.13.3-r0": [
      "CVE-2019-14859",
      "CVE-2019-14853"
    ]
  },
  "apkurl": "{{urlprefix}}/{{distroversion}}/{{reponame}}/{{arch}}/{{pkg.name}}-{{pkg.ver}}.apk",
  "archs": [

  ],
  "urlprefix": "https://dl-cdn.alpinelinux.org/alpine",
  "reponame": "community",
  "distroversion": "v3.12"
}