{
  "name": "runc",
  "secfixes": {
    "1.0.0_rc95-r0": [
      "CVE-2021-30465"
    ],
    "1.0.0_rc10-r0": [
      "CVE-2019-19921"
    ],
    "1.0.0_rc9-r0": [
      "CVE-2019-16884"
    ],
    "1.0.0_rc7-r0": [
      "CVE-2019-5736"
    ]
  },
  "apkurl": "{{urlprefix}}/{{distroversion}}/{{reponame}}/{{arch}}/{{pkg.name}}-{{pkg.ver}}.apk",
  "archs": [
    "aarch64",
    "armhf",
    "armv7",
    "mips64el",
    "ppc64le",
    "s390x",
    "x86",
    "x86_64"
  ],
  "urlprefix": "https://dl-cdn.alpinelinux.org/alpine",
  "reponame": "community",
  "distroversion": "v3.12"
}