{
  "name": "upx",
  "secfixes": {
    "3.96-r0": [
      "CVE-2018-11243",
      "CVE-2019-14296",
      "CVE-2019-20021",
      "CVE-2019-20053"
    ]
  },
  "apkurl": "{{urlprefix}}/{{distroversion}}/{{reponame}}/{{arch}}/{{pkg.name}}-{{pkg.ver}}.apk",
  "archs": [
    "mips64el",
    "ppc64le",
    "x86",
    "x86_64"
  ],
  "urlprefix": "https://dl-cdn.alpinelinux.org/alpine",
  "reponame": "community",
  "distroversion": "v3.12"
}