{
  "name": "exim",
  "secfixes": {
    "4.91-r2": [
      "CVE-2019-10149",
      "CVE-2019-15846"
    ],
    "4.90.1-r0": [
      "CVE-2018-6789"
    ],
    "4.89-r5": [
      "CVE-2017-1000369"
    ],
    "4.89-r7": [
      "CVE-2017-16943"
    ],
    "4.89.1-r0": [
      "CVE-2017-16944"
    ]
  },
  "apkurl": "{{urlprefix}}/{{distroversion}}/{{reponame}}/{{arch}}/{{pkg.name}}-{{pkg.ver}}.apk",
  "archs": [
    "aarch64",
    "armhf",
    "armv7",
    "mips64",
    "mips64el",
    "ppc64le",
    "s390x",
    "x86",
    "x86_64"
  ],
  "urlprefix": "https://dl-cdn.alpinelinux.org/alpine",
  "reponame": "community",
  "distroversion": "v3.8"
}