{
  "name": "webkit2gtk",
  "secfixes": {
    "2.20.4-r0": [
      "CVE-2018-4246",
      "CVE-2018-4261",
      "CVE-2018-4262",
      "CVE-2018-4263",
      "CVE-2018-4264",
      "CVE-2018-4265",
      "CVE-2018-4266",
      "CVE-2018-4267",
      "CVE-2018-4270",
      "CVE-2018-4272",
      "CVE-2018-4273",
      "CVE-2018-4278",
      "CVE-2018-4284",
      "CVE-2018-12911"
    ],
    "2.18.4-r0": [
      "CVE-2017-7156",
      "CVE-2017-7157",
      "CVE-2017-13856",
      "CVE-2017-13866",
      "CVE-2017-13870"
    ],
    "2.14.5-r0": [
      "CVE-2017-2350",
      "CVE-2017-2354",
      "CVE-2017-2355",
      "CVE-2017-2356",
      "CVE-2017-2362",
      "CVE-2017-2363",
      "CVE-2017-2364",
      "CVE-2017-2365",
      "CVE-2017-2366",
      "CVE-2017-2369",
      "CVE-2017-2371",
      "CVE-2017-2373"
    ]
  },
  "apkurl": "{{urlprefix}}/{{distroversion}}/{{reponame}}/{{arch}}/{{pkg.name}}-{{pkg.ver}}.apk",
  "archs": [
    "aarch64",
    "armhf",
    "armv7",
    "mips64",
    "mips64el",
    "ppc64le",
    "s390x",
    "x86",
    "x86_64"
  ],
  "urlprefix": "https://dl-cdn.alpinelinux.org/alpine",
  "reponame": "community",
  "distroversion": "v3.8"
}