{
  "name": "py-django",
  "secfixes": {
    "1.8.16-r0": [
      "CVE-2016-9013",
      "CVE-2016-9014"
    ],
    "1.8.18-r0": [
      "CVE-2017-7233",
      "CVE-2017-7234"
    ]
  },
  "apkurl": "{{urlprefix}}/{{distroversion}}/{{reponame}}/{{arch}}/{{pkg.name}}-{{pkg.ver}}.apk",
  "archs": [

  ],
  "urlprefix": "https://dl-cdn.alpinelinux.org/alpine",
  "reponame": "main",
  "distroversion": "v3.2"
}