{
  "name": "expat",
  "secfixes": {
    "2.2.7-r1": [
      "CVE-2019-15903"
    ],
    "2.2.7-r0": [
      "CVE-2018-20843"
    ],
    "2.2.0-r1": [
      "CVE-2017-9233"
    ]
  },
  "apkurl": "{{urlprefix}}/{{distroversion}}/{{reponame}}/{{arch}}/{{pkg.name}}-{{pkg.ver}}.apk",
  "archs": [
    "aarch64",
    "armhf",
    "armv7",
    "mips64",
    "mips64el",
    "ppc64le",
    "s390x",
    "x86",
    "x86_64"
  ],
  "urlprefix": "https://dl-cdn.alpinelinux.org/alpine",
  "reponame": "main",
  "distroversion": "v3.9"
}