{
  "name": "spice",
  "secfixes": {
    "0.14.1-r4": [
      "CVE-2019-3813"
    ],
    "0.14.1-r0": [
      "CVE-2018-10873"
    ],
    "0.12.8-r4": [
      "CVE-2017-7506"
    ],
    "0.12.8-r3": [
      "CVE-2016-9577",
      "CVE-2016-9578"
    ]
  },
  "apkurl": "{{urlprefix}}/{{distroversion}}/{{reponame}}/{{arch}}/{{pkg.name}}-{{pkg.ver}}.apk",
  "archs": [
    "aarch64",
    "armhf",
    "armv7",
    "mips64",
    "mips64el",
    "ppc64le",
    "s390x",
    "x86",
    "x86_64"
  ],
  "urlprefix": "https://dl-cdn.alpinelinux.org/alpine",
  "reponame": "main",
  "distroversion": "v3.9"
}