{
  "name": "heimdal",
  "secfixes": {
    "7.5.3-r4": [
      "CVE-2018-16860"
    ],
    "7.4.0-r2": [
      "CVE-2017-17439"
    ],
    "7.4.0-r0": [
      "CVE-2017-11103"
    ]
  },
  "apkurl": "{{urlprefix}}/{{distroversion}}/{{reponame}}/{{arch}}/{{pkg.name}}-{{pkg.ver}}.apk",
  "archs": [
    "aarch64",
    "armhf",
    "armv7",
    "mips64",
    "mips64el",
    "ppc64le",
    "s390x",
    "x86",
    "x86_64"
  ],
  "urlprefix": "https://dl-cdn.alpinelinux.org/alpine",
  "reponame": "main",
  "distroversion": "v3.13"
}