{
  "name": "libarchive",
  "secfixes": {
    "3.5.3-r0": [
      "CVE-2021-31566",
      "CVE-2021-36976"
    ],
    "3.4.2-r0": [
      "CVE-2020-19221",
      "CVE-2020-9308"
    ],
    "3.4.0-r0": [
      "CVE-2019-18408"
    ],
    "3.3.2-r1": [
      "CVE-2017-14166"
    ]
  },
  "apkurl": "{{urlprefix}}/{{distroversion}}/{{reponame}}/{{arch}}/{{pkg.name}}-{{pkg.ver}}.apk",
  "archs": [
    "aarch64",
    "armhf",
    "armv7",
    "mips64",
    "mips64el",
    "ppc64le",
    "s390x",
    "x86",
    "x86_64"
  ],
  "urlprefix": "https://dl-cdn.alpinelinux.org/alpine",
  "reponame": "main",
  "distroversion": "v3.13"
}