{
  "name": "libressl",
  "secfixes": {
    "3.1.5-r0": [
      "CVE-2020-1971"
    ],
    "2.7.4-r0": [
      "CVE-2018-0732",
      "CVE-2018-0495"
    ],
    "2.5.3-r1": [
      "CVE-2017-8301"
    ],
    "": [

    ]
  },
  "apkurl": "{{urlprefix}}/{{distroversion}}/{{reponame}}/{{arch}}/{{pkg.name}}-{{pkg.ver}}.apk",
  "archs": [
    "aarch64",
    "armhf",
    "armv7",
    "mips64",
    "mips64el",
    "ppc64le",
    "s390x",
    "x86",
    "x86_64"
  ],
  "urlprefix": "https://dl-cdn.alpinelinux.org/alpine",
  "reponame": "main",
  "distroversion": "v3.13"
}