{
  "name": "libvorbis",
  "secfixes": {
    "1.3.6-r2": [
      "CVE-2018-10393"
    ],
    "1.3.6-r1": [
      "CVE-2018-10392"
    ],
    "1.3.6-r0": [
      "CVE-2018-5146"
    ],
    "1.3.5-r4": [
      "CVE-2017-14632",
      "CVE-2017-14633"
    ],
    "1.3.5-r3": [
      "CVE-2017-14160"
    ]
  },
  "apkurl": "{{urlprefix}}/{{distroversion}}/{{reponame}}/{{arch}}/{{pkg.name}}-{{pkg.ver}}.apk",
  "archs": [
    "aarch64",
    "armhf",
    "armv7",
    "mips64",
    "mips64el",
    "ppc64le",
    "s390x",
    "x86",
    "x86_64"
  ],
  "urlprefix": "https://dl-cdn.alpinelinux.org/alpine",
  "reponame": "main",
  "distroversion": "v3.13"
}