{
  "name": "mbedtls",
  "secfixes": {
    "2.16.12-r0": [
      "CVE-2021-44732"
    ],
    "2.16.8-r0": [
      "CVE-2020-16150"
    ],
    "2.16.6-r0": [
      "CVE-2020-10932"
    ],
    "2.16.4-r0": [
      "CVE-2019-18222"
    ],
    "2.16.3-r0": [
      "CVE-2019-16910"
    ],
    "2.14.1-r0": [
      "CVE-2018-19608"
    ],
    "2.12.0-r0": [
      "CVE-2018-0498",
      "CVE-2018-0497"
    ],
    "2.7.0-r0": [
      "CVE-2018-0488",
      "CVE-2018-0487",
      "CVE-2017-18187"
    ],
    "2.6.0-r0": [
      "CVE-2017-14032"
    ],
    "2.4.2-r0": [
      "CVE-2017-2784"
    ]
  },
  "apkurl": "{{urlprefix}}/{{distroversion}}/{{reponame}}/{{arch}}/{{pkg.name}}-{{pkg.ver}}.apk",
  "archs": [
    "aarch64",
    "armhf",
    "armv7",
    "mips64",
    "mips64el",
    "ppc64le",
    "s390x",
    "x86",
    "x86_64"
  ],
  "urlprefix": "https://dl-cdn.alpinelinux.org/alpine",
  "reponame": "main",
  "distroversion": "v3.13"
}