{
  "name": "patch",
  "secfixes": {
    "2.7.6-r7": [
      "CVE-2019-20633"
    ],
    "2.7.6-r6": [
      "CVE-2018-1000156",
      "CVE-2019-13638",
      "CVE-2018-20969"
    ],
    "2.7.6-r5": [
      "CVE-2019-13636"
    ],
    "2.7.6-r2": [
      "CVE-2018-6951"
    ],
    "2.7.6-r4": [
      "CVE-2018-6952"
    ]
  },
  "apkurl": "{{urlprefix}}/{{distroversion}}/{{reponame}}/{{arch}}/{{pkg.name}}-{{pkg.ver}}.apk",
  "archs": [
    "aarch64",
    "armhf",
    "armv7",
    "mips64",
    "mips64el",
    "ppc64le",
    "s390x",
    "x86",
    "x86_64"
  ],
  "urlprefix": "https://dl-cdn.alpinelinux.org/alpine",
  "reponame": "main",
  "distroversion": "v3.13"
}