{
  "name": "rsyslog",
  "secfixes": {
    "8.2012.0-r3": [
      "CVE-2022-24903"
    ],
    "8.1908.0-r1": [
      "CVE-2019-17040",
      "CVE-2019-17041",
      "CVE-2019-17042"
    ]
  },
  "apkurl": "{{urlprefix}}/{{distroversion}}/{{reponame}}/{{arch}}/{{pkg.name}}-{{pkg.ver}}.apk",
  "archs": [
    "aarch64",
    "armhf",
    "armv7",
    "mips64",
    "mips64el",
    "ppc64le",
    "x86",
    "x86_64"
  ],
  "urlprefix": "https://dl-cdn.alpinelinux.org/alpine",
  "reponame": "main",
  "distroversion": "v3.13"
}