{
  "name": "tar",
  "secfixes": {
    "1.34-r0": [
      "CVE-2021-20193"
    ],
    "1.29-r1": [
      "CVE-2016-6321"
    ],
    "1.31-r0": [
      "CVE-2018-20482"
    ]
  },
  "apkurl": "{{urlprefix}}/{{distroversion}}/{{reponame}}/{{arch}}/{{pkg.name}}-{{pkg.ver}}.apk",
  "archs": [
    "aarch64",
    "armhf",
    "armv7",
    "mips64",
    "mips64el",
    "ppc64le",
    "s390x",
    "x86",
    "x86_64"
  ],
  "urlprefix": "https://dl-cdn.alpinelinux.org/alpine",
  "reponame": "main",
  "distroversion": "v3.13"
}