{
  "name": "cyrus-sasl",
  "secfixes": {
    "2.1.27-r4": [
      "CVE-2019-19906"
    ],
    "2.1.26-r7": [
      "CVE-2013-4122"
    ],
    "0": [
      "CVE-2020-8032"
    ]
  },
  "apkurl": "{{urlprefix}}/{{distroversion}}/{{reponame}}/{{arch}}/{{pkg.name}}-{{pkg.ver}}.apk",
  "archs": [
    "aarch64",
    "armhf",
    "armv7",
    "mips64",
    "mips64el",
    "ppc64le",
    "s390x",
    "x86",
    "x86_64"
  ],
  "urlprefix": "https://dl-cdn.alpinelinux.org/alpine",
  "reponame": "main",
  "distroversion": "v3.10"
}