{
  "name": "libxml2",
  "secfixes": {
    "2.9.9-r5": [
      "CVE-2021-3517",
      "CVE-2021-3518",
      "CVE-2021-3537"
    ],
    "2.9.9-r4": [
      "CVE-2020-24977"
    ],
    "2.9.9-r3": [
      "CVE-2019-19956"
    ],
    "2.9.8-r1": [
      "CVE-2018-9251",
      "CVE-2018-14404",
      "CVE-2018-14567"
    ],
    "2.9.4-r4": [
      "CVE-2017-5969"
    ],
    "2.9.4-r2": [
      "CVE-2016-9318"
    ],
    "2.9.4-r1": [
      "CVE-2016-5131"
    ]
  },
  "apkurl": "{{urlprefix}}/{{distroversion}}/{{reponame}}/{{arch}}/{{pkg.name}}-{{pkg.ver}}.apk",
  "archs": [
    "aarch64",
    "armhf",
    "armv7",
    "mips64",
    "mips64el",
    "ppc64le",
    "s390x",
    "x86",
    "x86_64"
  ],
  "urlprefix": "https://dl-cdn.alpinelinux.org/alpine",
  "reponame": "main",
  "distroversion": "v3.10"
}