{
  "name": "mariadb",
  "secfixes": {
    "10.3.29-r0": [
      "CVE-2021-2154",
      "CVE-2021-2166"
    ],
    "10.3.28-r0": [
      "CVE-2021-27928"
    ],
    "10.3.27-r0": [
      "CVE-2020-14765",
      "CVE-2020-14776",
      "CVE-2020-14789",
      "CVE-2020-14812",
      "CVE-2020-28912"
    ],
    "10.3.25-r0": [
      "CVE-2020-15180"
    ],
    "10.3.23-r0": [
      "CVE-2020-2752",
      "CVE-2020-2760",
      "CVE-2020-2812",
      "CVE-2020-2814"
    ],
    "10.3.22-r0": [
      "CVE-2020-2574"
    ],
    "10.3.20-r0": [
      "CVE-2019-2938",
      "CVE-2019-2974"
    ],
    "10.3.17-r0": [
      "CVE-2019-2805",
      "CVE-2019-2740",
      "CVE-2019-2739",
      "CVE-2019-2737",
      "CVE-2019-2758"
    ],
    "10.3.15-r0": [
      "CVE-2019-2614",
      "CVE-2019-2627",
      "CVE-2019-2628"
    ],
    "10.3.13-r0": [
      "CVE-2019-2510",
      "CVE-2019-2537"
    ],
    "10.3.11-r0": [
      "CVE-2018-3282",
      "CVE-2016-9843",
      "CVE-2018-3174",
      "CVE-2018-3143",
      "CVE-2018-3156",
      "CVE-2018-3251",
      "CVE-2018-3185",
      "CVE-2018-3277",
      "CVE-2018-3162",
      "CVE-2018-3173",
      "CVE-2018-3200",
      "CVE-2018-3284"
    ],
    "10.2.15-r0": [
      "CVE-2018-2786",
      "CVE-2018-2759",
      "CVE-2018-2777",
      "CVE-2018-2810",
      "CVE-2018-2782",
      "CVE-2018-2784",
      "CVE-2018-2787",
      "CVE-2018-2766",
      "CVE-2018-2755",
      "CVE-2018-2819",
      "CVE-2018-2817",
      "CVE-2018-2761",
      "CVE-2018-2781",
      "CVE-2018-2771",
      "CVE-2018-2813"
    ],
    "10.1.22-r0": [
      "CVE-2017-3313",
      "CVE-2017-3302"
    ],
    "10.1.21-r0": [
      "CVE-2016-6664",
      "CVE-2017-3238",
      "CVE-2017-3243",
      "CVE-2017-3244",
      "CVE-2017-3257",
      "CVE-2017-3258",
      "CVE-2017-3265",
      "CVE-2017-3291",
      "CVE-2017-3312",
      "CVE-2017-3317",
      "CVE-2017-3318"
    ]
  },
  "apkurl": "{{urlprefix}}/{{distroversion}}/{{reponame}}/{{arch}}/{{pkg.name}}-{{pkg.ver}}.apk",
  "archs": [
    "aarch64",
    "armhf",
    "armv7",
    "mips64",
    "mips64el",
    "ppc64le",
    "s390x",
    "x86",
    "x86_64"
  ],
  "urlprefix": "https://dl-cdn.alpinelinux.org/alpine",
  "reponame": "main",
  "distroversion": "v3.10"
}