{
  "name": "nodejs",
  "secfixes": {
    "10.24.1-r0": [
      "CVE-2020-7774"
    ],
    "10.19.0-r0": [
      "CVE-2019-15606",
      "CVE-2019-15605",
      "CVE-2019-15604"
    ],
    "10.16.3-r0": [
      "CVE-2019-9511",
      "CVE-2019-9512",
      "CVE-2019-9513",
      "CVE-2019-9514",
      "CVE-2019-9515",
      "CVE-2019-9516",
      "CVE-2019-9517",
      "CVE-2019-9518"
    ],
    "10.15.3-r0": [
      "CVE-2019-5737"
    ],
    "10.14.0-r0": [
      "CVE-2018-12121",
      "CVE-2018-12122",
      "CVE-2018-12123",
      "CVE-2018-0735",
      "CVE-2018-0734"
    ],
    "8.11.4-r0": [
      "CVE-2018-12115"
    ],
    "8.11.3-r0": [
      "CVE-2018-7167",
      "CVE-2018-7161",
      "CVE-2018-1000168"
    ],
    "8.11.0-r0": [
      "CVE-2018-7158",
      "CVE-2018-7159",
      "CVE-2018-7160"
    ],
    "8.9.3-r0": [
      "CVE-2017-15896",
      "CVE-2017-15897"
    ],
    "6.11.5-r0": [
      "CVE-2017-14919"
    ],
    "6.11.1-r0": [
      "CVE-2017-1000381"
    ],
    "": [

    ]
  },
  "apkurl": "{{urlprefix}}/{{distroversion}}/{{reponame}}/{{arch}}/{{pkg.name}}-{{pkg.ver}}.apk",
  "archs": [
    "aarch64",
    "armhf",
    "armv7",
    "ppc64le",
    "s390x",
    "x86",
    "x86_64"
  ],
  "urlprefix": "https://dl-cdn.alpinelinux.org/alpine",
  "reponame": "main",
  "distroversion": "v3.10"
}