{
  "name": "nss",
  "secfixes": {
    "3.44.3-r0": [
      "CVE-2019-11745"
    ],
    "3.41-r0": [
      "CVE-2018-12404"
    ],
    "3.39-r0": [
      "CVE-2018-12384"
    ]
  },
  "apkurl": "{{urlprefix}}/{{distroversion}}/{{reponame}}/{{arch}}/{{pkg.name}}-{{pkg.ver}}.apk",
  "archs": [
    "aarch64",
    "armhf",
    "armv7",
    "mips64",
    "mips64el",
    "ppc64le",
    "s390x",
    "x86",
    "x86_64"
  ],
  "urlprefix": "https://dl-cdn.alpinelinux.org/alpine",
  "reponame": "main",
  "distroversion": "v3.10"
}