{
  "name": "perl",
  "secfixes": {
    "5.28.3-r0": [
      "CVE-2020-10543",
      "CVE-2020-10878",
      "CVE-2020-12723"
    ],
    "5.26.3-r0": [
      "CVE-2018-18311",
      "CVE-2018-18312",
      "CVE-2018-18313",
      "CVE-2018-18314"
    ],
    "5.26.2-r1": [
      "CVE-2018-12015"
    ],
    "5.26.2-r0": [
      "CVE-2018-6797",
      "CVE-2018-6798",
      "CVE-2018-6913"
    ],
    "5.26.1-r0": [
      "CVE-2017-12837",
      "CVE-2017-12883"
    ]
  },
  "apkurl": "{{urlprefix}}/{{distroversion}}/{{reponame}}/{{arch}}/{{pkg.name}}-{{pkg.ver}}.apk",
  "archs": [
    "aarch64",
    "armhf",
    "armv7",
    "mips64",
    "mips64el",
    "ppc64le",
    "s390x",
    "x86",
    "x86_64"
  ],
  "urlprefix": "https://dl-cdn.alpinelinux.org/alpine",
  "reponame": "main",
  "distroversion": "v3.10"
}