{
  "name": "flatpak",
  "secfixes": {
    "1.10.1-r0": [
      "CVE-2021-21261"
    ],
    "1.2.4-r0": [
      "CVE-2019-10063"
    ]
  },
  "apkurl": "{{urlprefix}}/{{distroversion}}/{{reponame}}/{{arch}}/{{pkg.name}}-{{pkg.ver}}.apk",
  "archs": [
    "aarch64",
    "armhf",
    "armv7",
    "mips64el",
    "ppc64le",
    "x86",
    "x86_64"
  ],
  "urlprefix": "https://dl-cdn.alpinelinux.org/alpine",
  "reponame": "community",
  "distroversion": "v3.13"
}