{
  "name": "go",
  "secfixes": {
    "1.15.15-r0": [
      "CVE-2021-36221"
    ],
    "1.15.14-r0": [
      "CVE-2021-34558"
    ],
    "1.15.13-r0": [
      "CVE-2021-33195",
      "CVE-2021-33196",
      "CVE-2021-33197",
      "CVE-2021-33198"
    ],
    "1.15.12-r0": [
      "CVE-2021-31525"
    ],
    "1.15.10-r0": [
      "CVE-2021-27918",
      "CVE-2021-27919"
    ],
    "1.15.7-r0": [
      "CVE-2021-3114",
      "CVE-2021-3115"
    ],
    "1.15.5-r0": [
      "CVE-2020-28362",
      "CVE-2020-28366",
      "CVE-2020-28367"
    ],
    "1.15.2-r0": [
      "CVE-2020-24553"
    ],
    "1.15-r0": [
      "CVE-2020-16845"
    ],
    "1.14.5-r0": [
      "CVE-2020-15586"
    ],
    "1.13.7-r0": [
      "CVE-2020-7919"
    ],
    "1.13.2-r0": [
      "CVE-2019-17596"
    ],
    "1.13.1-r0": [
      "CVE-2019-16276"
    ],
    "1.12.8-r0": [
      "CVE-2019-9512",
      "CVE-2019-9514",
      "CVE-2019-14809"
    ],
    "1.11.5-r0": [
      "CVE-2019-6486"
    ],
    "1.9.4-r0": [
      "CVE-2018-6574"
    ]
  },
  "apkurl": "{{urlprefix}}/{{distroversion}}/{{reponame}}/{{arch}}/{{pkg.name}}-{{pkg.ver}}.apk",
  "archs": [
    "aarch64",
    "armhf",
    "armv7",
    "mips64el",
    "ppc64le",
    "s390x",
    "x86",
    "x86_64"
  ],
  "urlprefix": "https://dl-cdn.alpinelinux.org/alpine",
  "reponame": "community",
  "distroversion": "v3.13"
}