{
  "name": "libcaca",
  "secfixes": {
    "0.99_beta19-r3": [
      "CVE-2018-20544",
      "CVE-2018-20545",
      "CVE-2018-20546",
      "CVE-2018-20547",
      "CVE-2018-20548",
      "CVE-2018-20549"
    ]
  },
  "apkurl": "{{urlprefix}}/{{distroversion}}/{{reponame}}/{{arch}}/{{pkg.name}}-{{pkg.ver}}.apk",
  "archs": [
    "aarch64",
    "armhf",
    "armv7",
    "mips64",
    "mips64el",
    "ppc64le",
    "s390x",
    "x86",
    "x86_64"
  ],
  "urlprefix": "https://dl-cdn.alpinelinux.org/alpine",
  "reponame": "community",
  "distroversion": "v3.13"
}