{
  "name": "libexif",
  "secfixes": {
    "0.6.22-r0": [
      "CVE-2018-20030",
      "CVE-2020-13114",
      "CVE-2020-13113",
      "CVE-2020-13112",
      "CVE-2020-0093",
      "CVE-2019-9278",
      "CVE-2020-12767",
      "CVE-2016-6328"
    ],
    "0.6.21-r3": [
      "CVE-2017-7544"
    ],
    "0.6.21-r0": [
      "CVE-2012-2812",
      "CVE-2012-2813",
      "CVE-2012-2814",
      "CVE-2012-2836",
      "CVE-2012-2837",
      "CVE-2012-2840",
      "CVE-2012-2841",
      "CVE-2012-2845"
    ],
    "0.6.19-r0": [
      "CVE-2009-3895"
    ]
  },
  "apkurl": "{{urlprefix}}/{{distroversion}}/{{reponame}}/{{arch}}/{{pkg.name}}-{{pkg.ver}}.apk",
  "archs": [
    "aarch64",
    "armhf",
    "armv7",
    "mips64",
    "mips64el",
    "ppc64le",
    "s390x",
    "x86",
    "x86_64"
  ],
  "urlprefix": "https://dl-cdn.alpinelinux.org/alpine",
  "reponame": "community",
  "distroversion": "v3.13"
}