{
  "name": "mupdf",
  "secfixes": {
    "1.18.0-r1": [
      "CVE-2021-3407"
    ],
    "1.17.0-r3": [
      "CVE-2020-26519"
    ],
    "1.13-r0": [
      "CVE-2018-1000051",
      "CVE-2018-6544",
      "CVE-2018-6192",
      "CVE-2018-6187",
      "CVE-2018-5686",
      "CVE-2017-17858"
    ],
    "1.11-r1": [
      "CVE-2017-6060"
    ],
    "1.10a-r2": [
      "CVE-2017-5991"
    ],
    "1.10a-r1": [
      "CVE-2017-5896"
    ]
  },
  "apkurl": "{{urlprefix}}/{{distroversion}}/{{reponame}}/{{arch}}/{{pkg.name}}-{{pkg.ver}}.apk",
  "archs": [
    "aarch64",
    "armhf",
    "armv7",
    "mips64",
    "mips64el",
    "ppc64le",
    "s390x",
    "x86",
    "x86_64"
  ],
  "urlprefix": "https://dl-cdn.alpinelinux.org/alpine",
  "reponame": "community",
  "distroversion": "v3.13"
}