{
  "name": "opensc",
  "secfixes": {
    "0.20.0-r0": [
      "CVE-2019-6502",
      "CVE-2019-15945",
      "CVE-2019-15946",
      "CVE-2019-19479",
      "CVE-2019-19480",
      "CVE-2019-19481"
    ],
    "0.19.0-r0": [
      "CVE-2018-16391",
      "CVE-2018-16392",
      "CVE-2018-16393",
      "CVE-2018-16418",
      "CVE-2018-16419",
      "CVE-2018-16420",
      "CVE-2018-16421",
      "CVE-2018-16422",
      "CVE-2018-16423",
      "CVE-2018-16424",
      "CVE-2018-16425",
      "CVE-2018-16426",
      "CVE-2018-16427"
    ]
  },
  "apkurl": "{{urlprefix}}/{{distroversion}}/{{reponame}}/{{arch}}/{{pkg.name}}-{{pkg.ver}}.apk",
  "archs": [
    "aarch64",
    "armhf",
    "armv7",
    "mips64",
    "mips64el",
    "ppc64le",
    "s390x",
    "x86",
    "x86_64"
  ],
  "urlprefix": "https://dl-cdn.alpinelinux.org/alpine",
  "reponame": "community",
  "distroversion": "v3.11"
}