{
  "name": "sox",
  "secfixes": {
    "14.4.2-r5": [
      "CVE-2017-13571",
      "CVE-2017-11358",
      "CVE-2017-15370",
      "CVE-2017-11332",
      "CVE-2017-11359",
      "CVE-2017-15372",
      "CVE-2017-13642",
      "CVE-2017-18189",
      "CVE-2019-8354",
      "CVE-2019-8355",
      "CVE-2019-8356",
      "CVE-2019-8357"
    ]
  },
  "apkurl": "{{urlprefix}}/{{distroversion}}/{{reponame}}/{{arch}}/{{pkg.name}}-{{pkg.ver}}.apk",
  "archs": [
    "aarch64",
    "armhf",
    "armv7",
    "mips64",
    "mips64el",
    "ppc64le",
    "s390x",
    "x86",
    "x86_64"
  ],
  "urlprefix": "https://dl-cdn.alpinelinux.org/alpine",
  "reponame": "community",
  "distroversion": "v3.11"
}