{
  "name": "wireshark",
  "secfixes": {
    "3.0.14-r0": [
      "CVE-2020-25862",
      "CVE-2020-25863",
      "CVE-2020-25866"
    ],
    "3.0.11-r0": [
      "CVE-2020-13164"
    ],
    "3.0.10-r0": [
      "CVE-2020-11647"
    ],
    "3.0.9-r0": [
      "CVE-2020-9428",
      "CVE-2020-9430",
      "CVE-2020-9431"
    ],
    "3.0.8-r0": [
      "CVE-2020-7045"
    ],
    "3.0.7-r0": [
      "CVE-2019-19553"
    ],
    "3.0.4-r0": [
      "CVE-2019-16319"
    ],
    "3.0.3-r0": [
      "CVE-2019-13619"
    ],
    "3.0.2-r0": [
      "CVE-2019-12295"
    ],
    "3.0.1-r0": [
      "CVE-2019-10897",
      "CVE-2019-10898",
      "CVE-2019-10900",
      "CVE-2019-10902"
    ],
    "2.6.8-r0": [
      "CVE-2019-10894",
      "CVE-2019-10895",
      "CVE-2019-10896",
      "CVE-2019-10899",
      "CVE-2019-10901",
      "CVE-2019-10903"
    ],
    "2.6.7-r0": [
      "CVE-2019-9208",
      "CVE-2019-9209",
      "CVE-2019-9214"
    ],
    "2.6.6-r0": [
      "CVE-2019-5717",
      "CVE-2019-5718",
      "CVE-2019-5719",
      "CVE-2019-5721"
    ],
    "2.6.5-r0": [
      "CVE-2018-19622",
      "CVE-2018-19623",
      "CVE-2018-19624",
      "CVE-2018-19625",
      "CVE-2018-19626",
      "CVE-2018-19627",
      "CVE-2018-19628"
    ],
    "2.6.4-r0": [
      "CVE-2018-12086",
      "CVE-2018-18225",
      "CVE-2018-18226",
      "CVE-2018-18227"
    ],
    "2.6.3-r0": [
      "CVE-2018-16056",
      "CVE-2018-16057",
      "CVE-2018-16058"
    ],
    "2.6.2-r0": [
      "CVE-2018-14339",
      "CVE-2018-14340",
      "CVE-2018-14341",
      "CVE-2018-14342",
      "CVE-2018-14343",
      "CVE-2018-14344",
      "CVE-2018-14367",
      "CVE-2018-14368",
      "CVE-2018-14369",
      "CVE-2018-14370"
    ],
    "2.4.7-r0": [
      "CVE-2018-11356",
      "CVE-2018-11357",
      "CVE-2018-11358",
      "CVE-2018-11359",
      "CVE-2018-11360",
      "CVE-2018-11362"
    ],
    "2.4.6-r0": [
      "CVE-2018-9256",
      "CVE-2018-9257",
      "CVE-2018-9258",
      "CVE-2018-9260",
      "CVE-2018-9261",
      "CVE-2018-9262",
      "CVE-2018-9263",
      "CVE-2018-9264",
      "CVE-2018-9267",
      "CVE-2018-10194"
    ],
    "2.4.5-r0": [
      "CVE-2018-7320",
      "CVE-2018-7321",
      "CVE-2018-7322",
      "CVE-2018-7323",
      "CVE-2018-7324",
      "CVE-2018-7325",
      "CVE-2018-7326",
      "CVE-2018-7327",
      "CVE-2018-7328",
      "CVE-2018-7329",
      "CVE-2018-7330",
      "CVE-2018-7331",
      "CVE-2018-7332",
      "CVE-2018-7333",
      "CVE-2018-7334",
      "CVE-2018-7335",
      "CVE-2018-7336",
      "CVE-2018-7337",
      "CVE-2018-7417",
      "CVE-2018-7418",
      "CVE-2018-7419",
      "CVE-2018-7420"
    ],
    "2.4.4-r0": [
      "CVE-2018-5334",
      "CVE-2018-5335",
      "CVE-2018-5336"
    ],
    "2.4.3-r0": [
      "CVE-2017-17083",
      "CVE-2017-17084",
      "CVE-2017-17085"
    ],
    "2.4.2-r0": [
      "CVE-2017-15191",
      "CVE-2017-15192",
      "CVE-2017-15193"
    ],
    "2.4.1-r0": [
      "CVE-2017-13765",
      "CVE-2017-13766",
      "CVE-2017-13767"
    ],
    "2.2.8-r0": [
      "CVE-2017-11406",
      "CVE-2017-11407",
      "CVE-2017-11408"
    ],
    "2.2.7-r0": [
      "CVE-2017-9343",
      "CVE-2017-9344",
      "CVE-2017-9345",
      "CVE-2017-9346",
      "CVE-2017-9347",
      "CVE-2017-9348",
      "CVE-2017-9349",
      "CVE-2017-9350",
      "CVE-2017-9351",
      "CVE-2017-9352",
      "CVE-2017-9353",
      "CVE-2017-9354"
    ],
    "2.2.6-r0": [
      "CVE-2017-7700",
      "CVE-2017-7701",
      "CVE-2017-7702",
      "CVE-2017-7703",
      "CVE-2017-7704",
      "CVE-2017-7705"
    ],
    "2.2.5-r0": [
      "CVE-2017-6467",
      "CVE-2017-6468",
      "CVE-2017-6469",
      "CVE-2017-6470",
      "CVE-2017-6471",
      "CVE-2017-6472",
      "CVE-2017-6473",
      "CVE-2017-6474"
    ],
    "2.2.4-r1": [
      "CVE-2017-6014"
    ],
    "2.0.5-r0": [
      "CVE-2016-6505",
      "CVE-2016-6506",
      "CVE-2016-6508",
      "CVE-2016-6509",
      "CVE-2016-6510",
      "CVE-2016-6511",
      "CVE-2016-6512",
      "CVE-2016-6513"
    ]
  },
  "apkurl": "{{urlprefix}}/{{distroversion}}/{{reponame}}/{{arch}}/{{pkg.name}}-{{pkg.ver}}.apk",
  "archs": [
    "aarch64",
    "armhf",
    "armv7",
    "mips64",
    "mips64el",
    "ppc64le",
    "s390x",
    "x86",
    "x86_64"
  ],
  "urlprefix": "https://dl-cdn.alpinelinux.org/alpine",
  "reponame": "community",
  "distroversion": "v3.11"
}