{
  "name": "expat",
  "secfixes": {
    "2.4.5-r0": [
      "CVE-2022-25235",
      "CVE-2022-25236",
      "CVE-2022-25313",
      "CVE-2022-25314",
      "CVE-2022-25315"
    ],
    "2.4.4-r0": [
      "CVE-2022-23852",
      "CVE-2022-23990"
    ],
    "2.4.3-r0": [
      "CVE-2021-45960",
      "CVE-2021-46143",
      "CVE-2022-22822",
      "CVE-2022-22823",
      "CVE-2022-22824",
      "CVE-2022-22825",
      "CVE-2022-22826",
      "CVE-2022-22827"
    ],
    "2.2.7-r1": [
      "CVE-2019-15903"
    ],
    "2.2.7-r0": [
      "CVE-2018-20843"
    ],
    "2.2.0-r1": [
      "CVE-2017-9233"
    ]
  },
  "apkurl": "{{urlprefix}}/{{distroversion}}/{{reponame}}/{{arch}}/{{pkg.name}}-{{pkg.ver}}.apk",
  "archs": [
    "aarch64",
    "armhf",
    "armv7",
    "mips64",
    "mips64el",
    "ppc64le",
    "s390x",
    "x86",
    "x86_64"
  ],
  "urlprefix": "https://dl-cdn.alpinelinux.org/alpine",
  "reponame": "main",
  "distroversion": "v3.14"
}