{
  "name": "squashfs-tools",
  "secfixes": {
    "4.5-r1": [
      "CVE-2021-41072"
    ],
    "4.5-r0": [
      "CVE-2021-40153"
    ]
  },
  "apkurl": "{{urlprefix}}/{{distroversion}}/{{reponame}}/{{arch}}/{{pkg.name}}-{{pkg.ver}}.apk",
  "archs": [
    "aarch64",
    "armhf",
    "armv7",
    "mips64",
    "mips64el",
    "ppc64le",
    "s390x",
    "x86",
    "x86_64"
  ],
  "urlprefix": "https://dl-cdn.alpinelinux.org/alpine",
  "reponame": "main",
  "distroversion": "v3.14"
}