{
  "name": "squid",
  "secfixes": {
    "5.0.6-r2": [
      "CVE-2021-41611"
    ],
    "5.0.6-r1": [
      "CVE-2021-28116"
    ],
    "5.0.6-r0": [
      "CVE-2021-28651",
      "CVE-2021-28652",
      "CVE-2021-28662",
      "CVE-2021-31806",
      "CVE-2021-31807",
      "CVE-2021-31808"
    ],
    "- GHSA-572g-rvwr-6c7f": [

    ],
    "5.0.5-r0": [
      "CVE-2020-25097"
    ],
    "4.13.0-r0": [
      "CVE-2020-15810",
      "CVE-2020-15811",
      "CVE-2020-24606"
    ],
    "4.10-r0": [
      "CVE-2020-8449",
      "CVE-2020-8450",
      "CVE-2019-12528",
      "CVE-2020-8517"
    ],
    "4.9-r0": [
      "CVE-2019-18679"
    ],
    "4.8-r0": [
      "CVE-2019-13345"
    ],
    "3.5.27-r2": [
      "CVE-2018-1000024",
      "CVE-2018-1000027",
      "CVE-2018-1172"
    ]
  },
  "apkurl": "{{urlprefix}}/{{distroversion}}/{{reponame}}/{{arch}}/{{pkg.name}}-{{pkg.ver}}.apk",
  "archs": [
    "aarch64",
    "armhf",
    "armv7",
    "mips64",
    "mips64el",
    "ppc64le",
    "s390x",
    "x86",
    "x86_64"
  ],
  "urlprefix": "https://dl-cdn.alpinelinux.org/alpine",
  "reponame": "main",
  "distroversion": "v3.14"
}