{
  "name": "tcpdump",
  "secfixes": {
    "4.9.3-r1": [
      "CVE-2020-8037"
    ],
    "4.9.3-r0": [
      "CVE-2017-16808",
      "CVE-2018-14468",
      "CVE-2018-14469",
      "CVE-2018-14470",
      "CVE-2018-14466",
      "CVE-2018-14461",
      "CVE-2018-14462",
      "CVE-2018-14465",
      "CVE-2018-14881",
      "CVE-2018-14464",
      "CVE-2018-14463",
      "CVE-2018-14467",
      "CVE-2018-10103",
      "CVE-2018-10105",
      "CVE-2018-14880",
      "CVE-2018-16451",
      "CVE-2018-14882",
      "CVE-2018-16227",
      "CVE-2018-16229",
      "CVE-2018-16301",
      "CVE-2018-16230",
      "CVE-2018-16452",
      "CVE-2018-16300",
      "CVE-2018-16228",
      "CVE-2019-15166",
      "CVE-2019-15167",
      "CVE-2018-14879"
    ],
    "4.9.0-r0": [
      "CVE-2016-7922",
      "CVE-2016-7923",
      "CVE-2016-7924",
      "CVE-2016-7925",
      "CVE-2016-7926",
      "CVE-2016-7927",
      "CVE-2016-7928",
      "CVE-2016-7929",
      "CVE-2016-7930",
      "CVE-2016-7931",
      "CVE-2016-7932",
      "CVE-2016-7933",
      "CVE-2016-7934",
      "CVE-2016-7935",
      "CVE-2016-7936",
      "CVE-2016-7937",
      "CVE-2016-7938",
      "CVE-2016-7939",
      "CVE-2016-7940",
      "CVE-2016-7973",
      "CVE-2016-7974",
      "CVE-2016-7975",
      "CVE-2016-7983",
      "CVE-2016-7984",
      "CVE-2016-7985",
      "CVE-2016-7986",
      "CVE-2016-7992",
      "CVE-2016-7993",
      "CVE-2016-8574",
      "CVE-2016-8575",
      "CVE-2017-5202",
      "CVE-2017-5203",
      "CVE-2017-5204",
      "CVE-2017-5205",
      "CVE-2017-5341",
      "CVE-2017-5342",
      "CVE-2017-5482",
      "CVE-2017-5483",
      "CVE-2017-5484",
      "CVE-2017-5485",
      "CVE-2017-5486"
    ],
    "4.9.1-r0": [
      "CVE-2017-11108"
    ]
  },
  "apkurl": "{{urlprefix}}/{{distroversion}}/{{reponame}}/{{arch}}/{{pkg.name}}-{{pkg.ver}}.apk",
  "archs": [
    "aarch64",
    "armhf",
    "armv7",
    "mips64",
    "mips64el",
    "ppc64le",
    "s390x",
    "x86",
    "x86_64"
  ],
  "urlprefix": "https://dl-cdn.alpinelinux.org/alpine",
  "reponame": "main",
  "distroversion": "v3.14"
}