{
  "name": "zziplib",
  "secfixes": {
    "0.13.67-r0": [
      "CVE-2017-5974",
      "CVE-2017-5975",
      "CVE-2017-5976",
      "CVE-2017-5977",
      "CVE-2017-5978",
      "CVE-2017-5979",
      "CVE-2017-5981"
    ]
  },
  "apkurl": "{{urlprefix}}/{{distroversion}}/{{reponame}}/{{arch}}/{{pkg.name}}-{{pkg.ver}}.apk",
  "archs": [
    "aarch64",
    "armhf",
    "armv7",
    "mips64",
    "mips64el",
    "ppc64le",
    "s390x",
    "x86",
    "x86_64"
  ],
  "urlprefix": "https://dl-cdn.alpinelinux.org/alpine",
  "reponame": "community",
  "distroversion": "v3.6"
}