{
  "name": "libtasn1",
  "secfixes": {
    "4.8-r1": [
      "CVE-2017-6891"
    ],
    "4.8-r2": [
      "CVE-2017-10790"
    ],
    "4.8-r3": [
      "CVE-2018-6003"
    ]
  },
  "apkurl": "{{urlprefix}}/{{distroversion}}/{{reponame}}/{{arch}}/{{pkg.name}}-{{pkg.ver}}.apk",
  "archs": [
    "aarch64",
    "armhf",
    "armv7",
    "mips64",
    "mips64el",
    "ppc64le",
    "s390x",
    "x86",
    "x86_64"
  ],
  "urlprefix": "https://dl-cdn.alpinelinux.org/alpine",
  "reponame": "main",
  "distroversion": "v3.4"
}