{
  "name": "pcre",
  "secfixes": {
    "8.38-r1": [
      "CVE-2016-1283",
      "CVE-2016-3191"
    ],
    "7.8-r0": [
      "CVE-2017-16231"
    ]
  },
  "apkurl": "{{urlprefix}}/{{distroversion}}/{{reponame}}/{{arch}}/{{pkg.name}}-{{pkg.ver}}.apk",
  "archs": [
    "aarch64",
    "armhf",
    "armv7",
    "mips64",
    "mips64el",
    "ppc64le",
    "s390x",
    "x86",
    "x86_64"
  ],
  "urlprefix": "https://dl-cdn.alpinelinux.org/alpine",
  "reponame": "main",
  "distroversion": "v3.4"
}