{
  "name": "strongswan",
  "secfixes": {
    "5.4.0-r3": [
      "CVE-2017-11185"
    ],
    "5.4.0-r2": [
      "CVE-2017-9022",
      "CVE-2017-9023"
    ]
  },
  "apkurl": "{{urlprefix}}/{{distroversion}}/{{reponame}}/{{arch}}/{{pkg.name}}-{{pkg.ver}}.apk",
  "archs": [
    "aarch64",
    "armhf",
    "armv7",
    "mips64",
    "mips64el",
    "ppc64le",
    "s390x",
    "x86",
    "x86_64"
  ],
  "urlprefix": "https://dl-cdn.alpinelinux.org/alpine",
  "reponame": "main",
  "distroversion": "v3.4"
}