{
  "name": "ansible-base",
  "secfixes": {
    "2.9.13-r0": [
      "CVE-2020-14330",
      "CVE-2020-14332",
      "CVE-2020-14365"
    ],
    "2.9.7-r0": [
      "CVE-2019-3828",
      "CVE-2020-1733",
      "CVE-2020-1739",
      "CVE-2020-1740",
      "CVE-2020-1746",
      "CVE-2020-10691"
    ],
    "2.9.6-r0": [
      "CVE-2020-1737"
    ],
    "2.9.3-r0": [
      "CVE-2019-14904",
      "CVE-2019-14905"
    ],
    "2.8.6-r0": [
      "CVE-2019-14846",
      "CVE-2019-14856",
      "CVE-2019-14858"
    ],
    "2.8.4-r0": [
      "CVE-2019-10206",
      "CVE-2019-10217"
    ],
    "2.8.2-r0": [
      "CVE-2019-10156"
    ],
    "2.7.9-r0": [
      "CVE-2018-16876"
    ],
    "2.6.3-r0": [
      "CVE-2018-10875"
    ]
  },
  "apkurl": "{{urlprefix}}/{{distroversion}}/{{reponame}}/{{arch}}/{{pkg.name}}-{{pkg.ver}}.apk",
  "archs": [

  ],
  "urlprefix": "https://dl-cdn.alpinelinux.org/alpine",
  "reponame": "community",
  "distroversion": "v3.15"
}