{
  "name": "bat",
  "secfixes": {
    "0.18.3-r2": [
      "CVE-2022-24713"
    ]
  },
  "apkurl": "{{urlprefix}}/{{distroversion}}/{{reponame}}/{{arch}}/{{pkg.name}}-{{pkg.ver}}.apk",
  "archs": [
    "aarch64",
    "armhf",
    "armv7",
    "ppc64le",
    "x86",
    "x86_64"
  ],
  "urlprefix": "https://dl-cdn.alpinelinux.org/alpine",
  "reponame": "community",
  "distroversion": "v3.15"
}