{
  "name": "epiphany",
  "secfixes": {
    "41.3-r0": [
      "CVE-2021-45085",
      "CVE-2021-45086",
      "CVE-2021-45087",
      "CVE-2021-45088"
    ]
  },
  "apkurl": "{{urlprefix}}/{{distroversion}}/{{reponame}}/{{arch}}/{{pkg.name}}-{{pkg.ver}}.apk",
  "archs": [
    "aarch64",
    "armhf",
    "armv7",
    "mips64el",
    "ppc64le",
    "x86",
    "x86_64"
  ],
  "urlprefix": "https://dl-cdn.alpinelinux.org/alpine",
  "reponame": "community",
  "distroversion": "v3.15"
}