{
  "name": "libvirt",
  "secfixes": {
    "7.5.0-r0": [
      "CVE-2021-3631"
    ],
    "6.8.0-r0": [
      "CVE-2020-25637"
    ],
    "6.6.0-r0": [
      "CVE-2020-14339"
    ],
    "5.5.0-r0": [
      "CVE-2019-10168",
      "CVE-2019-10167",
      "CVE-2019-10166",
      "CVE-2019-10161"
    ]
  },
  "apkurl": "{{urlprefix}}/{{distroversion}}/{{reponame}}/{{arch}}/{{pkg.name}}-{{pkg.ver}}.apk",
  "archs": [
    "aarch64",
    "armhf",
    "armv7",
    "mips64el",
    "ppc64le",
    "x86",
    "x86_64"
  ],
  "urlprefix": "https://dl-cdn.alpinelinux.org/alpine",
  "reponame": "community",
  "distroversion": "v3.15"
}