{
  "name": "openjdk8",
  "secfixes": {
    "8.322.06-r0": [
      "CVE-2022-21248",
      "CVE-2022-21283",
      "CVE-2022-21293",
      "CVE-2022-21294",
      "CVE-2022-21282",
      "CVE-2022-21296",
      "CVE-2022-21299",
      "CVE-2022-21305",
      "CVE-2022-21340",
      "CVE-2022-21341",
      "CVE-2022-21349",
      "CVE-2022-21360",
      "CVE-2022-21365"
    ],
    "8.312.07-r0": [
      "CVE-2021-35550",
      "CVE-2021-35556",
      "CVE-2021-35559",
      "CVE-2021-35561",
      "CVE-2021-35564",
      "CVE-2021-35565",
      "CVE-2021-35567",
      "CVE-2021-35578",
      "CVE-2021-35586",
      "CVE-2021-35588",
      "CVE-2021-35603"
    ],
    "8.302.08-r0": [
      "CVE-2021-2341",
      "CVE-2021-2369",
      "CVE-2021-2388"
    ],
    "8.272.10-r0": [
      "CVE-2020-14556",
      "CVE-2020-14577",
      "CVE-2020-14578",
      "CVE-2020-14579",
      "CVE-2020-14581",
      "CVE-2020-14583",
      "CVE-2020-14593",
      "CVE-2020-14621",
      "CVE-2020-14779",
      "CVE-2020-14781",
      "CVE-2020-14782",
      "CVE-2020-14792",
      "CVE-2020-14796",
      "CVE-2020-14797",
      "CVE-2020-14798",
      "CVE-2020-14803"
    ],
    "8.252.09-r0": [
      "CVE-2020-2754",
      "CVE-2020-2755",
      "CVE-2020-2756",
      "CVE-2020-2757",
      "CVE-2020-2773",
      "CVE-2020-2781",
      "CVE-2020-2800",
      "CVE-2020-2803",
      "CVE-2020-2805",
      "CVE-2020-2830"
    ],
    "8.242.08-r0": [
      "CVE-2020-2583",
      "CVE-2020-2590",
      "CVE-2020-2593",
      "CVE-2020-2601",
      "CVE-2020-2604",
      "CVE-2020-2659",
      "CVE-2020-2654"
    ],
    "8.232.09-r0": [
      "CVE-2019-2933",
      "CVE-2019-2945",
      "CVE-2019-2949",
      "CVE-2019-2958",
      "CVE-2019-2964",
      "CVE-2019-2962",
      "CVE-2019-2973",
      "CVE-2019-2975",
      "CVE-2019-2978",
      "CVE-2019-2981",
      "CVE-2019-2983",
      "CVE-2019-2987",
      "CVE-2019-2988",
      "CVE-2019-2989",
      "CVE-2019-2992",
      "CVE-2019-2999",
      "CVE-2019-2894"
    ],
    "8.222.10-r0": [
      "CVE-2019-2745",
      "CVE-2019-2762",
      "CVE-2019-2766",
      "CVE-2019-2769",
      "CVE-2019-2786",
      "CVE-2019-2816",
      "CVE-2019-2842",
      "CVE-2019-7317"
    ],
    "8.212.04-r0": [
      "CVE-2019-2602",
      "CVE-2019-2684",
      "CVE-2019-2698"
    ],
    "8.201.08-r0": [
      "CVE-2019-2422",
      "CVE-2019-2426",
      "CVE-2018-11212"
    ],
    "8.191.12-r0": [
      "CVE-2018-3136",
      "CVE-2018-3139",
      "CVE-2018-3149",
      "CVE-2018-3169",
      "CVE-2018-3180",
      "CVE-2018-3183",
      "CVE-2018-3214",
      "CVE-2018-13785",
      "CVE-2018-16435"
    ],
    "8.181.13-r0": [
      "CVE-2018-2938",
      "CVE-2018-2940",
      "CVE-2018-2952",
      "CVE-2018-2973",
      "CVE-2018-3639"
    ]
  },
  "apkurl": "{{urlprefix}}/{{distroversion}}/{{reponame}}/{{arch}}/{{pkg.name}}-{{pkg.ver}}.apk",
  "archs": [
    "aarch64",
    "armhf",
    "armv7",
    "mips64el",
    "ppc64le",
    "s390x",
    "x86",
    "x86_64"
  ],
  "urlprefix": "https://dl-cdn.alpinelinux.org/alpine",
  "reponame": "community",
  "distroversion": "v3.15"
}