{
  "name": "qt5-qtwebengine",
  "secfixes": {
    "5.15.3_git20211127-r6": [
      "CVE-2022-1493",
      "CVE-2022-1314",
      "CVE-2022-1310",
      "CVE-2022-1305",
      "CVE-2022-1138",
      "CVE-2022-1125",
      "CVE-2022-0978",
      "CVE-2022-0797"
    ],
    "5.15.3_git20211127-r5": [
      "CVE-2022-1096",
      "CVE-2022-0971"
    ],
    "5.15.3_git20211127-r4": [
      "CVE-2022-23852",
      "CVE-2022-0610",
      "CVE-2022-0609",
      "CVE-2022-0608",
      "CVE-2022-0607",
      "CVE-2022-0606",
      "CVE-2022-0461",
      "CVE-2022-0460",
      "CVE-2022-0459",
      "CVE-2022-0456",
      "CVE-2022-0310",
      "CVE-2022-0306",
      "CVE-2022-0305",
      "CVE-2022-0298",
      "CVE-2022-0293",
      "CVE-2022-0291",
      "CVE-2022-0289",
      "CVE-2022-0117",
      "CVE-2022-0116",
      "CVE-2022-0113",
      "CVE-2022-0111",
      "CVE-2022-0109",
      "CVE-2022-0108",
      "CVE-2022-0104",
      "CVE-2022-0103",
      "CVE-2022-0102",
      "CVE-2022-0100"
    ],
    "5.15.3_git20211127-r2": [
      "CVE-2021-4101",
      "CVE-2021-4099",
      "CVE-2021-4098"
    ],
    "5.15.3_git20211127-r1": [
      "CVE-2021-4079",
      "CVE-2021-4078",
      "CVE-2021-4062",
      "CVE-2021-4059",
      "CVE-2021-4058",
      "CVE-2021-4057",
      "CVE-2021-38022",
      "CVE-2021-38021",
      "CVE-2021-38019",
      "CVE-2021-38018",
      "CVE-2021-38017",
      "CVE-2021-38015",
      "CVE-2021-38012",
      "CVE-2021-38010",
      "CVE-2021-38009",
      "CVE-2021-38007",
      "CVE-2021-38005",
      "CVE-2021-38001",
      "CVE-2021-37996",
      "CVE-2021-37989"
    ],
    "5.15.3_git20211127-r0": [
      "CVE-2021-38003",
      "CVE-2021-37993",
      "CVE-2021-37992",
      "CVE-2021-37987",
      "CVE-2021-37984"
    ],
    "5.15.3_git20211112-r0": [
      "CVE-2021-3541",
      "CVE-2021-3517"
    ],
    "5.15.3_git20211006-r3": [
      "CVE-2021-37980",
      "CVE-2021-37979",
      "CVE-2021-37978",
      "CVE-2021-37975",
      "CVE-2021-37973",
      "CVE-2021-37972",
      "CVE-2021-37971",
      "CVE-2021-37968",
      "CVE-2021-37967",
      "CVE-2021-37962",
      "CVE-2021-30616"
    ],
    "5.15.3_git20211006-r0": [
      "CVE-2021-30633",
      "CVE-2021-30629",
      "CVE-2021-30628",
      "CVE-2021-30627",
      "CVE-2021-30626",
      "CVE-2021-30625",
      "CVE-2021-30618",
      "CVE-2021-30613"
    ],
    "5.15.3_git20210510-r6": [
      "CVE-2021-30604",
      "CVE-2021-30603",
      "CVE-2021-30602",
      "CVE-2021-30599",
      "CVE-2021-30598",
      "CVE-2021-30585",
      "CVE-2021-30566",
      "CVE-2021-30560"
    ],
    "5.15.3_git20210510-r5": [
      "CVE-2021-30588",
      "CVE-2021-30587",
      "CVE-2021-30573",
      "CVE-2021-30569",
      "CVE-2021-30568"
    ],
    "5.15.3_git20210510-r4": [
      "CVE-2021-30563",
      "CVE-2021-30559",
      "CVE-2021-30556",
      "CVE-2021-30553",
      "CVE-2021-30548",
      "CVE-2021-30547",
      "CVE-2021-30541",
      "CVE-2021-30536",
      "CVE-2021-30533"
    ],
    "5.15.3_git20210510-r3": [
      "CVE-2021-30522"
    ],
    "5.15.3_git20210510-r2": [
      "CVE-2021-30554",
      "CVE-2021-30551",
      "CVE-2021-30544",
      "CVE-2021-30535",
      "CVE-2021-30534",
      "CVE-2021-30530",
      "CVE-2021-30523"
    ],
    "5.15.3_git20210510-r1": [
      "CVE-2021-30518",
      "CVE-2021-30516",
      "CVE-2021-30515",
      "CVE-2021-30513",
      "CVE-2021-30512",
      "CVE-2021-30510",
      "CVE-2021-30508"
    ],
    "5.15.3_git20210510-r0": [
      "CVE-2021-21201",
      "CVE-2021-21202",
      "CVE-2021-21203",
      "CVE-2021-21204",
      "CVE-2021-21206",
      "CVE-2021-21207",
      "CVE-2021-21209",
      "CVE-2021-21213",
      "CVE-2021-21214",
      "CVE-2021-21217",
      "CVE-2021-21219",
      "CVE-2021-21220",
      "CVE-2021-21221",
      "CVE-2021-21222",
      "CVE-2021-21223",
      "CVE-2021-21224",
      "CVE-2021-21225",
      "CVE-2021-21227",
      "CVE-2021-21230",
      "CVE-2021-21231",
      "CVE-2021-21233"
    ],
    "5.15.3_git20200401-r0": [
      "CVE-2020-16044",
      "CVE-2020-27844",
      "CVE-2021-21118",
      "CVE-2021-21119",
      "CVE-2021-21120",
      "CVE-2021-21121",
      "CVE-2021-21122",
      "CVE-2021-21123",
      "CVE-2021-21126",
      "CVE-2021-21127",
      "CVE-2021-21128",
      "CVE-2021-21132",
      "CVE-2021-21135",
      "CVE-2021-21137",
      "CVE-2021-21138",
      "CVE-2021-21140",
      "CVE-2021-21145",
      "CVE-2021-21146",
      "CVE-2021-21147",
      "CVE-2021-21148",
      "CVE-2021-21149",
      "CVE-2021-21150",
      "CVE-2021-21152",
      "CVE-2021-21153",
      "CVE-2021-21156",
      "CVE-2021-21157",
      "CVE-2021-21160",
      "CVE-2021-21162",
      "CVE-2021-21165",
      "CVE-2021-21166",
      "CVE-2021-21168",
      "CVE-2021-21169",
      "CVE-2021-21171",
      "CVE-2021-21172",
      "CVE-2021-21173",
      "CVE-2021-21174",
      "CVE-2021-21175",
      "CVE-2021-21178",
      "CVE-2021-21179",
      "CVE-2021-21183",
      "CVE-2021-21187",
      "CVE-2021-21188",
      "CVE-2021-21190",
      "CVE-2021-21191",
      "CVE-2021-21193",
      "CVE-2021-21195",
      "CVE-2021-21198"
    ]
  },
  "apkurl": "{{urlprefix}}/{{distroversion}}/{{reponame}}/{{arch}}/{{pkg.name}}-{{pkg.ver}}.apk",
  "archs": [
    "aarch64",
    "armv7",
    "x86",
    "x86_64"
  ],
  "urlprefix": "https://dl-cdn.alpinelinux.org/alpine",
  "reponame": "community",
  "distroversion": "v3.15"
}