{
  "name": "tor",
  "secfixes": {
    "0.4.6.7-r0": [
      "CVE-2021-38385"
    ],
    "0.4.6.5-r0": [
      "CVE-2021-28548",
      "CVE-2021-28549",
      "CVE-2021-28550"
    ],
    "0.4.5.7-r0": [
      "CVE-2021-28089",
      "CVE-2021-28090"
    ],
    "0.4.2.7-r0": [
      "CVE-2020-10592",
      "CVE-2020-10593"
    ],
    "0.3.5.8-r0": [
      "CVE-2019-8955"
    ],
    "0.3.0.8-r0": [
      "CVE-2017-0376"
    ],
    "0.3.2.10-r0": [
      "CVE-2018-0490",
      "CVE-2018-0491"
    ]
  },
  "apkurl": "{{urlprefix}}/{{distroversion}}/{{reponame}}/{{arch}}/{{pkg.name}}-{{pkg.ver}}.apk",
  "archs": [
    "aarch64",
    "armhf",
    "armv7",
    "mips64",
    "mips64el",
    "ppc64le",
    "s390x",
    "x86",
    "x86_64"
  ],
  "urlprefix": "https://dl-cdn.alpinelinux.org/alpine",
  "reponame": "community",
  "distroversion": "v3.15"
}