{
  "name": "vlc",
  "secfixes": {
    "3.0.12-r0": [
      "CVE-2020-26664"
    ],
    "3.0.11-r0": [
      "CVE-2020-13428"
    ],
    "3.0.9.2-r0": [
      "CVE-2019-19721",
      "CVE-2020-6071",
      "CVE-2020-6072",
      "CVE-2020-6073",
      "CVE-2020-6077",
      "CVE-2020-6078",
      "CVE-2020-6079"
    ],
    "3.0.7.1-r2": [
      "CVE-2019-13602"
    ]
  },
  "apkurl": "{{urlprefix}}/{{distroversion}}/{{reponame}}/{{arch}}/{{pkg.name}}-{{pkg.ver}}.apk",
  "archs": [
    "aarch64",
    "armv7",
    "mips64el",
    "ppc64le",
    "x86",
    "x86_64"
  ],
  "urlprefix": "https://dl-cdn.alpinelinux.org/alpine",
  "reponame": "community",
  "distroversion": "v3.15"
}