{
  "name": "roundcubemail",
  "secfixes": {
    "1.3.10-r0": [
      "CVE-2019-10740"
    ],
    "1.3.8-r0": [
      "CVE-2018-19206"
    ],
    "1.3.6-r0": [
      "CVE-2018-9846"
    ],
    "1.2.7-r0": [
      "CVE-2017-16651"
    ],
    "1.2.5-r0": [
      "CVE-2017-8114"
    ]
  },
  "apkurl": "{{urlprefix}}/{{distroversion}}/{{reponame}}/{{arch}}/{{pkg.name}}-{{pkg.ver}}.apk",
  "archs": [

  ],
  "urlprefix": "https://dl-cdn.alpinelinux.org/alpine",
  "reponame": "unmaintained",
  "distroversion": "v3.15"
}