{
  "name": "drupal7",
  "secfixes": {
    "7.67-r0": [
      "CVE-2019-11831",
      "CVE-2019-11358"
    ],
    "7.62-r0": [
      "CVE-2018-1000888"
    ],
    "7.59-r0": [
      "CVE-2018-7602"
    ],
    "7.58-r0": [
      "CVE-2018-7600"
    ]
  },
  "apkurl": "{{urlprefix}}/{{distroversion}}/{{reponame}}/{{arch}}/{{pkg.name}}-{{pkg.ver}}.apk",
  "archs": [

  ],
  "urlprefix": "https://dl-cdn.alpinelinux.org/alpine",
  "reponame": "community",
  "distroversion": "v3.9"
}