{
  "name": "freerdp",
  "secfixes": {
    "2.0.0_rc4-r0": [
      "CVE-2018-8786",
      "CVE-2018-8787",
      "CVE-2018-8788",
      "CVE-2018-8789"
    ]
  },
  "apkurl": "{{urlprefix}}/{{distroversion}}/{{reponame}}/{{arch}}/{{pkg.name}}-{{pkg.ver}}.apk",
  "archs": [
    "aarch64",
    "armhf",
    "armv7",
    "mips64",
    "mips64el",
    "ppc64le",
    "s390x",
    "x86",
    "x86_64"
  ],
  "urlprefix": "https://dl-cdn.alpinelinux.org/alpine",
  "reponame": "community",
  "distroversion": "v3.9"
}