{
  "name": "gimp",
  "secfixes": {
    "2.8.22-r2": [
      "CVE-2017-17784",
      "CVE-2017-17785",
      "CVE-2017-17786",
      "CVE-2017-17787",
      "CVE-2017-17788",
      "CVE-2017-17789"
    ]
  },
  "apkurl": "{{urlprefix}}/{{distroversion}}/{{reponame}}/{{arch}}/{{pkg.name}}-{{pkg.ver}}.apk",
  "archs": [
    "aarch64",
    "armhf",
    "armv7",
    "mips64",
    "mips64el",
    "ppc64le",
    "s390x",
    "x86",
    "x86_64"
  ],
  "urlprefix": "https://dl-cdn.alpinelinux.org/alpine",
  "reponame": "community",
  "distroversion": "v3.9"
}