{
  "name": "znc",
  "secfixes": {
    "1.7.1-r4": [
      "CVE-2019-12816"
    ],
    "1.7.1-r3": [
      "CVE-2019-9917"
    ],
    "1.7.1-r0": [
      "CVE-2018-14055",
      "CVE-2018-14056"
    ]
  },
  "apkurl": "{{urlprefix}}/{{distroversion}}/{{reponame}}/{{arch}}/{{pkg.name}}-{{pkg.ver}}.apk",
  "archs": [
    "aarch64",
    "armhf",
    "armv7",
    "mips64",
    "mips64el",
    "ppc64le",
    "s390x",
    "x86",
    "x86_64"
  ],
  "urlprefix": "https://dl-cdn.alpinelinux.org/alpine",
  "reponame": "community",
  "distroversion": "v3.9"
}