{
  "name": "icu",
  "secfixes": {
    "57.1-r1": [
      "CVE-2016-6293"
    ],
    "58.1-r1": [
      "CVE-2016-7415"
    ],
    "58.2-r2": [
      "CVE-2017-7867",
      "CVE-2017-7868"
    ]
  },
  "apkurl": "{{urlprefix}}/{{distroversion}}/{{reponame}}/{{arch}}/{{pkg.name}}-{{pkg.ver}}.apk",
  "archs": [
    "aarch64",
    "armhf",
    "armv7",
    "mips64",
    "mips64el",
    "ppc64le",
    "s390x",
    "x86",
    "x86_64"
  ],
  "urlprefix": "https://dl-cdn.alpinelinux.org/alpine",
  "reponame": "main",
  "distroversion": "v3.6"
}