{
  "name": "mercurial",
  "secfixes": {
    "4.5.2-r0": [
      "CVE-2018-1000132"
    ],
    "4.3.1-r0": [
      "CVE-2017-1000115",
      "CVE-2017-1000116"
    ]
  },
  "apkurl": "{{urlprefix}}/{{distroversion}}/{{reponame}}/{{arch}}/{{pkg.name}}-{{pkg.ver}}.apk",
  "archs": [
    "aarch64",
    "armhf",
    "armv7",
    "mips64",
    "mips64el",
    "ppc64le",
    "s390x",
    "x86",
    "x86_64"
  ],
  "urlprefix": "https://dl-cdn.alpinelinux.org/alpine",
  "reponame": "main",
  "distroversion": "v3.6"
}