{
  "name": "openssh",
  "secfixes": {
    "7.5_p1-r4": [
      "CVE-2018-20685",
      "CVE-2019-6109",
      "CVE-2019-6111"
    ],
    "7.5_p1-r3": [
      "CVE-2018-15473"
    ],
    "7.5_p1-r2": [
      "CVE-2017-15906"
    ],
    "7.4_p1-r0": [
      "CVE-2016-10009",
      "CVE-2016-10010",
      "CVE-2016-10011",
      "CVE-2016-10012"
    ]
  },
  "apkurl": "{{urlprefix}}/{{distroversion}}/{{reponame}}/{{arch}}/{{pkg.name}}-{{pkg.ver}}.apk",
  "archs": [
    "aarch64",
    "armhf",
    "armv7",
    "mips64",
    "mips64el",
    "ppc64le",
    "s390x",
    "x86",
    "x86_64"
  ],
  "urlprefix": "https://dl-cdn.alpinelinux.org/alpine",
  "reponame": "main",
  "distroversion": "v3.6"
}