{
  "name": "python3",
  "secfixes": {
    "3.6.8-r0": [
      "CVE-2018-14647",
      "CVE-2018-20406",
      "CVE-2019-9636"
    ],
    "3.6.5-r0": [
      "CVE-2018-1060",
      "CVE-2018-1061"
    ]
  },
  "apkurl": "{{urlprefix}}/{{distroversion}}/{{reponame}}/{{arch}}/{{pkg.name}}-{{pkg.ver}}.apk",
  "archs": [
    "aarch64",
    "armhf",
    "armv7",
    "mips64",
    "mips64el",
    "ppc64le",
    "s390x",
    "x86",
    "x86_64"
  ],
  "urlprefix": "https://dl-cdn.alpinelinux.org/alpine",
  "reponame": "main",
  "distroversion": "v3.6"
}