{
  "name": "curl",
  "secfixes": {
    "7.83.1-r0": [
      "CVE-2022-27778",
      "CVE-2022-27779",
      "CVE-2022-27780",
      "CVE-2022-27781",
      "CVE-2022-27782",
      "CVE-2022-30115"
    ],
    "7.83.0-r0": [
      "CVE-2022-22576",
      "CVE-2022-27774",
      "CVE-2022-27775",
      "CVE-2022-27776"
    ],
    "7.79.0-r0": [
      "CVE-2021-22945",
      "CVE-2021-22946",
      "CVE-2021-22947"
    ],
    "7.78.0-r0": [
      "CVE-2021-22922",
      "CVE-2021-22923",
      "CVE-2021-22924",
      "CVE-2021-22925"
    ],
    "7.77.0-r0": [
      "CVE-2021-22898",
      "CVE-2021-22901"
    ],
    "7.76.0-r0": [
      "CVE-2021-22876",
      "CVE-2021-22890"
    ],
    "7.74.0-r0": [
      "CVE-2020-8284",
      "CVE-2020-8285",
      "CVE-2020-8286"
    ],
    "7.72.0-r0": [
      "CVE-2020-8231"
    ],
    "7.71.0-r0": [
      "CVE-2020-8169",
      "CVE-2020-8177"
    ],
    "7.66.0-r0": [
      "CVE-2019-5481",
      "CVE-2019-5482"
    ],
    "7.65.0-r0": [
      "CVE-2019-5435",
      "CVE-2019-5436"
    ],
    "7.64.0-r0": [
      "CVE-2018-16890",
      "CVE-2019-3822",
      "CVE-2019-3823"
    ],
    "7.62.0-r0": [
      "CVE-2018-16839",
      "CVE-2018-16840",
      "CVE-2018-16842"
    ],
    "7.61.1-r0": [
      "CVE-2018-14618"
    ],
    "7.61.0-r0": [
      "CVE-2018-0500"
    ],
    "7.60.0-r0": [
      "CVE-2018-1000300",
      "CVE-2018-1000301"
    ],
    "7.59.0-r0": [
      "CVE-2018-1000120",
      "CVE-2018-1000121",
      "CVE-2018-1000122"
    ],
    "7.57.0-r0": [
      "CVE-2017-8816",
      "CVE-2017-8817",
      "CVE-2017-8818"
    ],
    "7.56.1-r0": [
      "CVE-2017-1000257"
    ],
    "7.55.0-r0": [
      "CVE-2017-1000099",
      "CVE-2017-1000100",
      "CVE-2017-1000101"
    ],
    "7.54.0-r0": [
      "CVE-2017-7468"
    ],
    "7.53.1-r2": [
      "CVE-2017-7407"
    ],
    "7.53.0-r0": [
      "CVE-2017-2629"
    ],
    "7.52.1-r0": [
      "CVE-2016-9594"
    ],
    "7.51.0-r0": [
      "CVE-2016-8615",
      "CVE-2016-8616",
      "CVE-2016-8617",
      "CVE-2016-8618",
      "CVE-2016-8619",
      "CVE-2016-8620",
      "CVE-2016-8621",
      "CVE-2016-8622",
      "CVE-2016-8623",
      "CVE-2016-8624",
      "CVE-2016-8625"
    ],
    "7.50.3-r0": [
      "CVE-2016-7167"
    ],
    "7.50.2-r0": [
      "CVE-2016-7141"
    ],
    "7.50.1-r0": [
      "CVE-2016-5419",
      "CVE-2016-5420",
      "CVE-2016-5421"
    ],
    "7.36.0-r0": [
      "CVE-2014-0138",
      "CVE-2014-0139"
    ],
    "0": [
      "CVE-2021-22897"
    ]
  },
  "apkurl": "{{urlprefix}}/{{distroversion}}/{{reponame}}/{{arch}}/{{pkg.name}}-{{pkg.ver}}.apk",
  "archs": [
    "aarch64",
    "armhf",
    "armv7",
    "mips64",
    "mips64el",
    "ppc64le",
    "s390x",
    "x86",
    "x86_64"
  ],
  "urlprefix": "https://dl-cdn.alpinelinux.org/alpine",
  "reponame": "main",
  "distroversion": "v3.16"
}