{
  "name": "dovecot",
  "secfixes": {
    "2.3.15-r0": [
      "CVE-2021-29157",
      "CVE-2021-33515"
    ],
    "2.3.13-r0": [
      "CVE-2020-24386",
      "CVE-2020-25275"
    ],
    "2.3.11.3-r0": [
      "CVE-2020-12100",
      "CVE-2020-12673",
      "CVE-2020-12674"
    ],
    "2.3.10.1-r0": [
      "CVE-2020-10957",
      "CVE-2020-10958",
      "CVE-2020-10967"
    ],
    "2.3.9.3-r0": [
      "CVE-2020-7046",
      "CVE-2020-7957"
    ],
    "2.3.9.2-r0": [
      "CVE-2019-19722"
    ],
    "2.3.7.2-r0": [
      "CVE-2019-11500"
    ],
    "2.3.6-r0": [
      "CVE-2019-11499",
      "CVE-2019-11494",
      "CVE-2019-10691"
    ],
    "2.3.5.1-r0": [
      "CVE-2019-7524"
    ],
    "2.3.4.1-r0": [
      "CVE-2019-3814"
    ],
    "2.3.1-r0": [
      "CVE-2017-15130",
      "CVE-2017-14461",
      "CVE-2017-15132"
    ]
  },
  "apkurl": "{{urlprefix}}/{{distroversion}}/{{reponame}}/{{arch}}/{{pkg.name}}-{{pkg.ver}}.apk",
  "archs": [
    "aarch64",
    "armhf",
    "armv7",
    "mips64",
    "mips64el",
    "ppc64le",
    "s390x",
    "x86",
    "x86_64"
  ],
  "urlprefix": "https://dl-cdn.alpinelinux.org/alpine",
  "reponame": "main",
  "distroversion": "v3.16"
}