{
  "name": "freeradius",
  "secfixes": {
    "3.0.19-r3": [
      "CVE-2019-10143"
    ],
    "3.0.19-r0": [
      "CVE-2019-11234",
      "CVE-2019-11235"
    ]
  },
  "apkurl": "{{urlprefix}}/{{distroversion}}/{{reponame}}/{{arch}}/{{pkg.name}}-{{pkg.ver}}.apk",
  "archs": [
    "aarch64",
    "armhf",
    "armv7",
    "mips64",
    "mips64el",
    "ppc64le",
    "s390x",
    "x86",
    "x86_64"
  ],
  "urlprefix": "https://dl-cdn.alpinelinux.org/alpine",
  "reponame": "main",
  "distroversion": "v3.16"
}