{
  "name": "libjpeg-turbo",
  "secfixes": {
    "2.1.0-r0": [
      "CVE-2021-20205"
    ],
    "2.0.4-r2": [
      "CVE-2020-13790"
    ],
    "2.0.4-r0": [
      "CVE-2019-2201"
    ],
    "2.0.2-r0": [
      "CVE-2018-20330",
      "CVE-2018-19664"
    ],
    "1.5.3-r3": [
      "CVE-2018-11813"
    ],
    "1.5.3-r2": [
      "CVE-2018-1152"
    ]
  },
  "apkurl": "{{urlprefix}}/{{distroversion}}/{{reponame}}/{{arch}}/{{pkg.name}}-{{pkg.ver}}.apk",
  "archs": [
    "aarch64",
    "armhf",
    "armv7",
    "mips64",
    "mips64el",
    "ppc64le",
    "s390x",
    "x86",
    "x86_64"
  ],
  "urlprefix": "https://dl-cdn.alpinelinux.org/alpine",
  "reponame": "main",
  "distroversion": "v3.16"
}