{
  "name": "musl",
  "secfixes": {
    "1.2.2_pre2-r0": [
      "CVE-2020-28928"
    ],
    "1.1.23-r2": [
      "CVE-2019-14697"
    ],
    "1.1.15-r4": [
      "CVE-2016-8859"
    ]
  },
  "apkurl": "{{urlprefix}}/{{distroversion}}/{{reponame}}/{{arch}}/{{pkg.name}}-{{pkg.ver}}.apk",
  "archs": [
    "aarch64",
    "armhf",
    "armv7",
    "mips64",
    "mips64el",
    "ppc64le",
    "s390x",
    "x86",
    "x86_64"
  ],
  "urlprefix": "https://dl-cdn.alpinelinux.org/alpine",
  "reponame": "main",
  "distroversion": "v3.16"
}