{
  "name": "putty",
  "secfixes": {
    "0.76-r0": [
      "CVE-2021-36367"
    ],
    "0.74-r0": [
      "CVE-2020-14002"
    ],
    "0.73-r0": [
      "CVE-2019-17068",
      "CVE-2019-17069"
    ],
    "0.71-r0": [
      "CVE-2019-9894",
      "CVE-2019-9895",
      "CVE-2019-9897",
      "CVE-2019-9898"
    ]
  },
  "apkurl": "{{urlprefix}}/{{distroversion}}/{{reponame}}/{{arch}}/{{pkg.name}}-{{pkg.ver}}.apk",
  "archs": [
    "aarch64",
    "armhf",
    "armv7",
    "mips64",
    "mips64el",
    "ppc64le",
    "s390x",
    "x86",
    "x86_64"
  ],
  "urlprefix": "https://dl-cdn.alpinelinux.org/alpine",
  "reponame": "main",
  "distroversion": "v3.16"
}