{
  "name": "py3-yaml",
  "secfixes": {
    "5.4-r0": [
      "CVE-2020-14343"
    ],
    "5.3.1-r0": [
      "CVE-2020-1747"
    ]
  },
  "apkurl": "{{urlprefix}}/{{distroversion}}/{{reponame}}/{{arch}}/{{pkg.name}}-{{pkg.ver}}.apk",
  "archs": [
    "aarch64",
    "armhf",
    "armv7",
    "mips64",
    "mips64el",
    "ppc64le",
    "s390x",
    "x86",
    "x86_64"
  ],
  "urlprefix": "https://dl-cdn.alpinelinux.org/alpine",
  "reponame": "main",
  "distroversion": "v3.16"
}