{
  "name": "libsndfile",
  "secfixes": {
    "1.0.28-r2": [
      "CVE-2017-12562"
    ],
    "1.0.28-r0": [
      "CVE-2017-7585",
      "CVE-2017-7741",
      "CVE-2017-7742"
    ],
    "1.0.28-r1": [
      "CVE-2017-8361",
      "CVE-2017-8362",
      "CVE-2017-8363",
      "CVE-2017-8365"
    ]
  },
  "apkurl": "{{urlprefix}}/{{distroversion}}/{{reponame}}/{{arch}}/{{pkg.name}}-{{pkg.ver}}.apk",
  "archs": [
    "aarch64",
    "armhf",
    "armv7",
    "mips64",
    "mips64el",
    "ppc64le",
    "s390x",
    "x86",
    "x86_64"
  ],
  "urlprefix": "https://dl-cdn.alpinelinux.org/alpine",
  "reponame": "main",
  "distroversion": "v3.3"
}