{
  "name": "f2fs-tools",
  "secfixes": {
    "1.14.0-r0": [
      "CVE-2021-6104",
      "CVE-2021-6105",
      "CVE-2021-6106",
      "CVE-2021-6107",
      "CVE-2021-6108"
    ]
  },
  "apkurl": "{{urlprefix}}/{{distroversion}}/{{reponame}}/{{arch}}/{{pkg.name}}-{{pkg.ver}}.apk",
  "archs": [
    "aarch64",
    "armhf",
    "armv7",
    "mips64",
    "mips64el",
    "ppc64le",
    "s390x",
    "x86",
    "x86_64"
  ],
  "urlprefix": "https://dl-cdn.alpinelinux.org/alpine",
  "reponame": "main",
  "distroversion": "vedge"
}