{
  "name": "gd",
  "secfixes": {
    "2.3.0-r1": [
      "CVE-2021-38115",
      "CVE-2021-40145"
    ],
    "2.3.0-r0": [
      "CVE-2019-11038",
      "CVE-2018-14553",
      "CVE-2017-6363"
    ],
    "2.2.5-r2": [
      "CVE-2018-5711",
      "CVE-2019-6977",
      "CVE-2019-6978"
    ],
    "2.2.5-r1": [
      "CVE-2018-1000222"
    ]
  },
  "apkurl": "{{urlprefix}}/{{distroversion}}/{{reponame}}/{{arch}}/{{pkg.name}}-{{pkg.ver}}.apk",
  "archs": [
    "aarch64",
    "armhf",
    "armv7",
    "mips64",
    "mips64el",
    "ppc64le",
    "s390x",
    "x86",
    "x86_64"
  ],
  "urlprefix": "https://dl-cdn.alpinelinux.org/alpine",
  "reponame": "main",
  "distroversion": "vedge"
}