{
  "name": "gnupg",
  "secfixes": {
    "2.2.23-r0": [
      "CVE-2020-25125"
    ],
    "2.2.18-r0": [
      "CVE-2019-14855"
    ],
    "2.2.8-r0": [
      "CVE-2018-12020"
    ]
  },
  "apkurl": "{{urlprefix}}/{{distroversion}}/{{reponame}}/{{arch}}/{{pkg.name}}-{{pkg.ver}}.apk",
  "archs": [
    "aarch64",
    "armhf",
    "armv7",
    "mips64",
    "mips64el",
    "ppc64le",
    "s390x",
    "x86",
    "x86_64"
  ],
  "urlprefix": "https://dl-cdn.alpinelinux.org/alpine",
  "reponame": "main",
  "distroversion": "vedge"
}