{
  "name": "nodejs",
  "secfixes": {
    "16.13.2-r0": [
      "CVE-2021-44531",
      "CVE-2021-44532",
      "CVE-2021-44533",
      "CVE-2022-21824"
    ],
    "14.18.1-r0": [
      "CVE-2021-22959",
      "CVE-2021-22960"
    ],
    "14.17.6-r0": [
      "CVE-2021-37701",
      "CVE-2021-37712",
      "CVE-2021-37713",
      "CVE-2021-39134",
      "CVE-2021-39135"
    ],
    "14.17.5-r0": [
      "CVE-2021-3672",
      "CVE-2021-22931",
      "CVE-2021-22939"
    ],
    "14.17.4-r0": [
      "CVE-2021-22930"
    ],
    "14.16.1-r0": [
      "CVE-2020-7774"
    ],
    "14.16.0-r0": [
      "CVE-2021-22883",
      "CVE-2021-22884"
    ],
    "14.15.5-r0": [
      "CVE-2021-21148"
    ],
    "14.15.4-r0": [
      "CVE-2020-8265",
      "CVE-2020-8287"
    ],
    "14.15.1-r0": [
      "CVE-2020-8277"
    ],
    "12.18.4-r0": [
      "CVE-2020-8201",
      "CVE-2020-8252"
    ],
    "12.18.0-r0": [
      "CVE-2020-8172",
      "CVE-2020-11080",
      "CVE-2020-8174"
    ],
    "12.15.0-r0": [
      "CVE-2019-15606",
      "CVE-2019-15605",
      "CVE-2019-15604"
    ],
    "10.16.3-r0": [
      "CVE-2019-9511",
      "CVE-2019-9512",
      "CVE-2019-9513",
      "CVE-2019-9514",
      "CVE-2019-9515",
      "CVE-2019-9516",
      "CVE-2019-9517",
      "CVE-2019-9518"
    ],
    "10.15.3-r0": [
      "CVE-2019-5737"
    ],
    "10.14.0-r0": [
      "CVE-2018-12121",
      "CVE-2018-12122",
      "CVE-2018-12123",
      "CVE-2018-0735",
      "CVE-2018-0734"
    ],
    "8.11.4-r0": [
      "CVE-2018-12115"
    ],
    "8.11.3-r0": [
      "CVE-2018-7167",
      "CVE-2018-7161",
      "CVE-2018-1000168"
    ],
    "8.11.0-r0": [
      "CVE-2018-7158",
      "CVE-2018-7159",
      "CVE-2018-7160"
    ],
    "8.9.3-r0": [
      "CVE-2017-15896",
      "CVE-2017-15897"
    ],
    "6.11.5-r0": [
      "CVE-2017-14919"
    ],
    "6.11.1-r0": [
      "CVE-2017-1000381"
    ],
    "": [

    ]
  },
  "apkurl": "{{urlprefix}}/{{distroversion}}/{{reponame}}/{{arch}}/{{pkg.name}}-{{pkg.ver}}.apk",
  "archs": [
    "aarch64",
    "armhf",
    "armv7",
    "mips64",
    "mips64el",
    "ppc64le",
    "s390x",
    "x86",
    "x86_64"
  ],
  "urlprefix": "https://dl-cdn.alpinelinux.org/alpine",
  "reponame": "main",
  "distroversion": "vedge"
}