{
  "name": "unbound",
  "secfixes": {
    "1.10.1-r0": [
      "CVE-2020-12662",
      "CVE-2020-12663"
    ],
    "1.9.5-r0": [
      "CVE-2019-18934"
    ],
    "1.9.4-r0": [
      "CVE-2019-16866"
    ]
  },
  "apkurl": "{{urlprefix}}/{{distroversion}}/{{reponame}}/{{arch}}/{{pkg.name}}-{{pkg.ver}}.apk",
  "archs": [
    "aarch64",
    "armhf",
    "armv7",
    "mips64",
    "mips64el",
    "ppc64le",
    "s390x",
    "x86",
    "x86_64"
  ],
  "urlprefix": "https://dl-cdn.alpinelinux.org/alpine",
  "reponame": "main",
  "distroversion": "vedge"
}