{
  "name": "wget",
  "secfixes": {
    "1.20.3-r0": [
      "CVE-2019-5953"
    ],
    "1.20.1-r0": [
      "CVE-2018-20483"
    ],
    "1.19.5-r0": [
      "CVE-2018-0494"
    ],
    "1.19.1-r1": [
      "CVE-2017-6508"
    ],
    "1.19.2-r0": [
      "CVE-2017-13090"
    ]
  },
  "apkurl": "{{urlprefix}}/{{distroversion}}/{{reponame}}/{{arch}}/{{pkg.name}}-{{pkg.ver}}.apk",
  "archs": [
    "aarch64",
    "armhf",
    "armv7",
    "mips64",
    "mips64el",
    "ppc64le",
    "s390x",
    "x86",
    "x86_64"
  ],
  "urlprefix": "https://dl-cdn.alpinelinux.org/alpine",
  "reponame": "main",
  "distroversion": "vedge"
}