{
  "name": "clamav",
  "secfixes": {
    "0.104.2-r0": [
      "CVE-2022-20698"
    ],
    "0.103.2-r0": [
      "CVE-2021-1405",
      "CVE-2021-1404",
      "CVE-2021-1252"
    ],
    "0.102.4-r0": [
      "CVE-2020-3350",
      "CVE-2020-3481"
    ],
    "0.102.3-r0": [
      "CVE-2020-3327",
      "CVE-2020-3341"
    ],
    "0.102.1-r0": [
      "CVE-2020-3123"
    ],
    "0.102.0-r0": [
      "CVE-2019-15961"
    ],
    "0.101.4-r0": [
      "CVE-2019-12625"
    ],
    "0.100.3-r0": [
      "CVE-2019-1787",
      "CVE-2019-1788",
      "CVE-2019-1789"
    ],
    "0.99.4-r0": [
      "CVE-2012-6706",
      "CVE-2017-6419",
      "CVE-2017-11423",
      "CVE-2018-0202",
      "CVE-2018-1000085"
    ],
    "0.99.3-r0": [
      "CVE-2017-12374",
      "CVE-2017-12375",
      "CVE-2017-12376",
      "CVE-2017-12377",
      "CVE-2017-12378",
      "CVE-2017-12379",
      "CVE-2017-12380"
    ],
    "0.100.1-r0": [
      "CVE-2017-16932",
      "CVE-2018-0360",
      "CVE-2018-0361"
    ],
    "0.100.2-r0": [
      "CVE-2018-15378",
      "CVE-2018-14680",
      "CVE-2018-14681",
      "CVE-2018-14682"
    ]
  },
  "apkurl": "{{urlprefix}}/{{distroversion}}/{{reponame}}/{{arch}}/{{pkg.name}}-{{pkg.ver}}.apk",
  "archs": [
    "aarch64",
    "armhf",
    "armv7",
    "mips64",
    "mips64el",
    "ppc64le",
    "s390x",
    "x86",
    "x86_64"
  ],
  "urlprefix": "https://dl-cdn.alpinelinux.org/alpine",
  "reponame": "community",
  "distroversion": "v3.16"
}