{
  "name": "firefox-esr",
  "secfixes": {
    "91.9.1-r0": [
      "CVE-2022-1529",
      "CVE-2022-1802"
    ],
    "91.9.0-r0": [
      "CVE-2022-29909",
      "CVE-2022-29911",
      "CVE-2022-29912",
      "CVE-2022-29914",
      "CVE-2022-29916",
      "CVE-2022-29917"
    ],
    "91.8.0-r0": [
      "CVE-2022-1097",
      "CVE-2022-1196",
      "CVE-2022-24713",
      "CVE-2022-28281",
      "CVE-2022-28282",
      "CVE-2022-28285",
      "CVE-2022-28286",
      "CVE-2022-28289"
    ],
    "91.7.0-r0": [
      "CVE-2022-26381",
      "CVE-2022-26383",
      "CVE-2022-26384",
      "CVE-2022-26386",
      "CVE-2022-26387"
    ],
    "91.6.1-r0": [
      "CVE-2022-26485",
      "CVE-2022-26486"
    ],
    "91.6.0-r0": [
      "CVE-2022-22754",
      "CVE-2022-22756",
      "CVE-2022-22759",
      "CVE-2022-22760",
      "CVE-2022-22761",
      "CVE-2022-22763",
      "CVE-2022-22764"
    ],
    "91.5.0-r0": [
      "CVE-2021-4140",
      "CVE-2022-22737",
      "CVE-2022-22738",
      "CVE-2022-22739",
      "CVE-2022-22740",
      "CVE-2022-22741",
      "CVE-2022-22742",
      "CVE-2022-22743",
      "CVE-2022-22744",
      "CVE-2022-22745",
      "CVE-2022-22746",
      "CVE-2022-22747",
      "CVE-2022-22748",
      "CVE-2022-22751"
    ],
    "91.4.0-r0": [
      "CVE-2021-43536",
      "CVE-2021-43537",
      "CVE-2021-43538",
      "CVE-2021-43539",
      "CVE-2021-43541",
      "CVE-2021-43542",
      "CVE-2021-43543",
      "CVE-2021-43545",
      "CVE-2021-43546"
    ],
    "91.3.0-r0": [
      "CVE-2021-38503",
      "CVE-2021-38504",
      "CVE-2021-38505",
      "CVE-2021-38506",
      "CVE-2021-38507",
      "CVE-2021-38508",
      "CVE-2021-38509",
      "CVE-2021-38510"
    ],
    "91.2.0-r0": [
      "CVE-2021-32810",
      "CVE-2021-38492",
      "CVE-2021-38493",
      "CVE-2021-38495",
      "CVE-2021-38496",
      "CVE-2021-38497",
      "CVE-2021-38498",
      "CVE-2021-38500",
      "CVE-2021-38501"
    ],
    "78.13.0-r0": [
      "CVE-2021-29980",
      "CVE-2021-29984",
      "CVE-2021-29985",
      "CVE-2021-29986",
      "CVE-2021-29988",
      "CVE-2021-29989"
    ],
    "78.12.0-r0": [
      "CVE-2021-29970",
      "CVE-2021-29976",
      "CVE-2021-30547"
    ],
    "78.11.0-r0": [
      "CVE-2021-29967"
    ],
    "78.10.0-r0": [
      "CVE-2021-23961",
      "CVE-2021-23994",
      "CVE-2021-23995",
      "CVE-2021-23998",
      "CVE-2021-23999",
      "CVE-2021-24002",
      "CVE-2021-29945",
      "CVE-2021-29946"
    ],
    "78.9.0-r0": [
      "CVE-2021-23981",
      "CVE-2021-23982",
      "CVE-2021-23984",
      "CVE-2021-23987"
    ],
    "78.8.0-r0": [
      "CVE-2021-23968",
      "CVE-2021-23969",
      "CVE-2021-23973",
      "CVE-2021-23978"
    ],
    "78.7.0-r0": [
      "CVE-2020-26976",
      "CVE-2021-23953",
      "CVE-2021-23954",
      "CVE-2021-23960",
      "CVE-2021-23964"
    ],
    "78.6.1-r0": [
      "CVE-2020-16044"
    ],
    "78.6.0-r0": [
      "CVE-2020-16042",
      "CVE-2020-26971",
      "CVE-2020-26973",
      "CVE-2020-26974",
      "CVE-2020-26978",
      "CVE-2020-35111",
      "CVE-2020-35112",
      "CVE-2020-35113"
    ],
    "78.5.0-r0": [
      "CVE-2020-15683",
      "CVE-2020-15969",
      "CVE-2020-15999",
      "CVE-2020-16012",
      "CVE-2020-26950",
      "CVE-2020-26951",
      "CVE-2020-26953",
      "CVE-2020-26956",
      "CVE-2020-26958",
      "CVE-2020-26959",
      "CVE-2020-26960",
      "CVE-2020-26961",
      "CVE-2020-26965",
      "CVE-2020-26966",
      "CVE-2020-26968"
    ],
    "78.3.0-r0": [
      "CVE-2020-15673",
      "CVE-2020-15676",
      "CVE-2020-15677",
      "CVE-2020-15678"
    ],
    "78.2.0-r0": [
      "CVE-2020-15663",
      "CVE-2020-15664",
      "CVE-2020-15670"
    ],
    "78.1.0-r0": [
      "CVE-2020-15652",
      "CVE-2020-15653",
      "CVE-2020-15654",
      "CVE-2020-15655",
      "CVE-2020-15656",
      "CVE-2020-15657",
      "CVE-2020-15658",
      "CVE-2020-15659",
      "CVE-2020-6463",
      "CVE-2020-6514"
    ],
    "68.10.0-r0": [
      "CVE-2020-12417",
      "CVE-2020-12418",
      "CVE-2020-12419",
      "CVE-2020-12420",
      "CVE-2020-12421"
    ],
    "68.9.0-r0": [
      "CVE-2020-12399",
      "CVE-2020-12405",
      "CVE-2020-12406",
      "CVE-2020-12410"
    ],
    "68.8.0-r0": [
      "CVE-2020-12387",
      "CVE-2020-12388",
      "CVE-2020-12389",
      "CVE-2020-12392",
      "CVE-2020-12393",
      "CVE-2020-12395",
      "CVE-2020-6831"
    ],
    "68.7.0-r0": [
      "CVE-2020-6821",
      "CVE-2020-6822",
      "CVE-2020-6825"
    ],
    "68.6.1-r0": [
      "CVE-2020-6819",
      "CVE-2020-6820"
    ],
    "68.6.0-r0": [
      "CVE-2019-20503",
      "CVE-2020-6805",
      "CVE-2020-6806",
      "CVE-2020-6807",
      "CVE-2020-6811",
      "CVE-2020-6812",
      "CVE-2020-6814"
    ],
    "68.5.0-r0": [
      "CVE-2020-6796",
      "CVE-2020-6797",
      "CVE-2020-6798",
      "CVE-2020-6799",
      "CVE-2020-6800"
    ],
    "68.4.1-r0": [
      "CVE-2019-17016",
      "CVE-2019-17022",
      "CVE-2019-17024",
      "CVE-2019-17026"
    ],
    "68.3.0-r0": [
      "CVE-2019-17005",
      "CVE-2019-17008",
      "CVE-2019-17009",
      "CVE-2019-17010",
      "CVE-2019-17011",
      "CVE-2019-17012"
    ],
    "68.2.0-r0": [
      "CVE-2019-11757",
      "CVE-2019-11758",
      "CVE-2019-11759",
      "CVE-2019-11760",
      "CVE-2019-11761",
      "CVE-2019-11762",
      "CVE-2019-11763",
      "CVE-2019-11764",
      "CVE-2019-15903"
    ],
    "68.1.0-r0": [
      "CVE-2019-9812",
      "CVE-2019-11740",
      "CVE-2019-11742",
      "CVE-2019-11743",
      "CVE-2019-11744",
      "CVE-2019-11746",
      "CVE-2019-11752"
    ],
    "68.0.2-r0": [
      "CVE-2019-11733"
    ],
    "68.0-r0": [
      "CVE-2019-11709",
      "CVE-2019-11711",
      "CVE-2019-11712",
      "CVE-2019-11713",
      "CVE-2019-11715",
      "CVE-2019-11717",
      "CVE-2019-11719",
      "CVE-2019-11729",
      "CVE-2019-11730",
      "CVE-2019-9811"
    ],
    "60.7.2-r0": [
      "CVE-2019-11708"
    ],
    "60.7.1-r0": [
      "CVE-2019-11707"
    ],
    "60.7.0-r0": [
      "CVE-2019-9815",
      "CVE-2019-9816",
      "CVE-2019-9817",
      "CVE-2019-9818",
      "CVE-2019-9819",
      "CVE-2019-9820",
      "CVE-2019-11691",
      "CVE-2019-11692",
      "CVE-2019-11693",
      "CVE-2019-7317",
      "CVE-2019-9797",
      "CVE-2018-18511",
      "CVE-2019-11694",
      "CVE-2019-11698",
      "CVE-2019-5798",
      "CVE-2019-9800"
    ],
    "60.6.1-r0": [
      "CVE-2019-9810",
      "CVE-2019-9813",
      "CVE-2019-9790",
      "CVE-2019-9791",
      "CVE-2019-9792",
      "CVE-2019-9793",
      "CVE-2019-9794",
      "CVE-2019-9795",
      "CVE-2019-9796",
      "CVE-2019-9801",
      "CVE-2018-18506",
      "CVE-2019-9788"
    ],
    "60.5.2-r0": [
      "CVE-2019-5785",
      "CVE-2018-18335",
      "CVE-2018-18356"
    ],
    "60.5.0-r0": [
      "CVE-2018-18500",
      "CVE-2018-18505",
      "CVE-2018-18501"
    ],
    "52.6.0-r0": [
      "CVE-2018-5089",
      "CVE-2018-5091",
      "CVE-2018-5095",
      "CVE-2018-5096",
      "CVE-2018-5097",
      "CVE-2018-5098",
      "CVE-2018-5099",
      "CVE-2018-5102",
      "CVE-2018-5103",
      "CVE-2018-5104",
      "CVE-2018-5117"
    ],
    "52.5.2-r0": [
      "CVE-2017-7843"
    ]
  },
  "apkurl": "{{urlprefix}}/{{distroversion}}/{{reponame}}/{{arch}}/{{pkg.name}}-{{pkg.ver}}.apk",
  "archs": [
    "aarch64",
    "armv7",
    "ppc64le",
    "x86",
    "x86_64"
  ],
  "urlprefix": "https://dl-cdn.alpinelinux.org/alpine",
  "reponame": "community",
  "distroversion": "v3.16"
}