{
  "name": "freerdp",
  "secfixes": {
    "2.4.1-r0": [
      "CVE-2021-41159",
      "CVE-2021-41160"
    ],
    "2.2.0-r0": [
      "CVE-2020-15103"
    ],
    "2.1.2-r0": [
      "CVE-2020-4033",
      "CVE-2020-4031",
      "CVE-2020-4032",
      "CVE-2020-4030",
      "CVE-2020-11099",
      "CVE-2020-11098",
      "CVE-2020-11097",
      "CVE-2020-11095",
      "CVE-2020-11096"
    ],
    "2.0.0-r1": [
      "CVE-2020-13398",
      "CVE-2020-13397",
      "CVE-2020-13396"
    ],
    "2.0.0-r0": [
      "CVE-2020-11521",
      "CVE-2020-11522",
      "CVE-2020-11523",
      "CVE-2020-11524",
      "CVE-2020-11525",
      "CVE-2020-11526"
    ],
    "2.0.0_rc4-r0": [
      "CVE-2018-8786",
      "CVE-2018-8787",
      "CVE-2018-8788",
      "CVE-2018-8789"
    ]
  },
  "apkurl": "{{urlprefix}}/{{distroversion}}/{{reponame}}/{{arch}}/{{pkg.name}}-{{pkg.ver}}.apk",
  "archs": [
    "aarch64",
    "armhf",
    "armv7",
    "mips64",
    "mips64el",
    "ppc64le",
    "s390x",
    "x86",
    "x86_64"
  ],
  "urlprefix": "https://dl-cdn.alpinelinux.org/alpine",
  "reponame": "community",
  "distroversion": "v3.16"
}