{
  "name": "go-ipfs",
  "secfixes": {
    "0.8.0-r0": [
      "CVE-2020-26279",
      "CVE-2020-26283"
    ]
  },
  "apkurl": "{{urlprefix}}/{{distroversion}}/{{reponame}}/{{arch}}/{{pkg.name}}-{{pkg.ver}}.apk",
  "archs": [
    "armhf",
    "armv7",
    "x86",
    "x86_64"
  ],
  "urlprefix": "https://dl-cdn.alpinelinux.org/alpine",
  "reponame": "community",
  "distroversion": "v3.16"
}