{
  "name": "libvpx",
  "secfixes": {
    "1.8.2-r0": [
      "CVE-2020-0034"
    ],
    "1.8.1-r0": [
      "CVE-2019-9371",
      "CVE-2019-9433",
      "CVE-2019-9325",
      "CVE-2019-9232"
    ]
  },
  "apkurl": "{{urlprefix}}/{{distroversion}}/{{reponame}}/{{arch}}/{{pkg.name}}-{{pkg.ver}}.apk",
  "archs": [
    "aarch64",
    "armhf",
    "armv7",
    "mips64",
    "mips64el",
    "ppc64le",
    "s390x",
    "x86",
    "x86_64"
  ],
  "urlprefix": "https://dl-cdn.alpinelinux.org/alpine",
  "reponame": "community",
  "distroversion": "v3.16"
}