{
  "name": "libvncserver",
  "secfixes": {
    "0.9.13-r0": [
      "CVE-2019-20839",
      "CVE-2019-20840",
      "CVE-2020-14397",
      "CVE-2020-14399",
      "CVE-2020-14400",
      "CVE-2020-14401",
      "CVE-2020-14402",
      "CVE-2020-14403",
      "CVE-2020-14404",
      "CVE-2020-14405",
      "CVE-2020-25708"
    ],
    "0.9.12-r1": [
      "CVE-2019-15681"
    ],
    "0.9.11-r2": [
      "CVE-2018-7225"
    ],
    "0.9.11-r0": [
      "CVE-2016-9941",
      "CVE-2016-9942"
    ]
  },
  "apkurl": "{{urlprefix}}/{{distroversion}}/{{reponame}}/{{arch}}/{{pkg.name}}-{{pkg.ver}}.apk",
  "archs": [
    "aarch64",
    "armhf",
    "armv7",
    "mips64",
    "mips64el",
    "ppc64le",
    "s390x",
    "x86",
    "x86_64"
  ],
  "urlprefix": "https://dl-cdn.alpinelinux.org/alpine",
  "reponame": "community",
  "distroversion": "v3.16"
}