{
  "name": "ntpsec",
  "secfixes": {
    "1.2.1-r0": [
      "CVE-2021-22212"
    ],
    "1.1.3-r0": [
      "CVE-2019-6442",
      "CVE-2019-6443",
      "CVE-2019-6444",
      "CVE-2019-6445"
    ]
  },
  "apkurl": "{{urlprefix}}/{{distroversion}}/{{reponame}}/{{arch}}/{{pkg.name}}-{{pkg.ver}}.apk",
  "archs": [
    "aarch64",
    "armhf",
    "armv7",
    "mips64",
    "mips64el",
    "ppc64le",
    "s390x",
    "x86",
    "x86_64"
  ],
  "urlprefix": "https://dl-cdn.alpinelinux.org/alpine",
  "reponame": "community",
  "distroversion": "v3.16"
}