{
  "name": "openjdk13",
  "secfixes": {
    "13.0.11_p4-r0": [
      "CVE-2022-21426",
      "CVE-2022-21434",
      "CVE-2022-21443",
      "CVE-2022-21476",
      "CVE-2022-21496"
    ],
    "13.0.10_p5-r0": [
      "CVE-2022-21248",
      "CVE-2022-21277",
      "CVE-2022-21282",
      "CVE-2022-21283",
      "CVE-2022-21291",
      "CVE-2022-21293",
      "CVE-2022-21294",
      "CVE-2022-21296",
      "CVE-2022-21299",
      "CVE-2022-21305",
      "CVE-2022-21340",
      "CVE-2022-21341",
      "CVE-2022-21360",
      "CVE-2022-21365",
      "CVE-2022-21366"
    ]
  },
  "apkurl": "{{urlprefix}}/{{distroversion}}/{{reponame}}/{{arch}}/{{pkg.name}}-{{pkg.ver}}.apk",
  "archs": [
    "aarch64",
    "mips64",
    "mips64el",
    "ppc64le",
    "s390x",
    "x86_64"
  ],
  "urlprefix": "https://dl-cdn.alpinelinux.org/alpine",
  "reponame": "community",
  "distroversion": "v3.16"
}