{
  "name": "prosody",
  "secfixes": {
    "0.11.9-r0": [
      "CVE-2021-32917",
      "CVE-2021-32918",
      "CVE-2021-32919",
      "CVE-2021-32920",
      "CVE-2021-32921"
    ],
    "0.11.10-r0": [
      "CVE-2021-37601"
    ],
    "0.11.12-r0": [
      "CVE-2022-0217"
    ]
  },
  "apkurl": "{{urlprefix}}/{{distroversion}}/{{reponame}}/{{arch}}/{{pkg.name}}-{{pkg.ver}}.apk",
  "archs": [
    "aarch64",
    "armhf",
    "armv7",
    "mips64",
    "mips64el",
    "ppc64le",
    "s390x",
    "x86",
    "x86_64"
  ],
  "urlprefix": "https://dl-cdn.alpinelinux.org/alpine",
  "reponame": "community",
  "distroversion": "v3.16"
}