{
  "name": "asterisk",
  "secfixes": {
    "15.6.2-r0": [
      "CVE-2018-19278",
      "CVE-2019-7251",
      "CVE-2019-12827",
      "CVE-2019-13161",
      "CVE-2019-15297"
    ]
  },
  "apkurl": "{{urlprefix}}/{{distroversion}}/{{reponame}}/{{arch}}/{{pkg.name}}-{{pkg.ver}}.apk",
  "archs": [
    "aarch64",
    "armhf",
    "armv7",
    "mips64",
    "mips64el",
    "ppc64le",
    "s390x",
    "x86",
    "x86_64"
  ],
  "urlprefix": "https://dl-cdn.alpinelinux.org/alpine",
  "reponame": "main",
  "distroversion": "v3.7"
}