{
  "name": "binutils",
  "secfixes": {
    "2.28-r1": [
      "CVE-2017-7614"
    ],
    "2.30-r2": [
      "CVE-2018-7208",
      "CVE-2018-6543",
      "CVE-2018-7643",
      "CVE-2018-6759",
      "CVE-2018-7642",
      "CVE-2018-7570",
      "CVE-2018-7569",
      "CVE-2018-6872",
      "CVE-2018-7568",
      "CVE-2018-8945"
    ]
  },
  "apkurl": "{{urlprefix}}/{{distroversion}}/{{reponame}}/{{arch}}/{{pkg.name}}-{{pkg.ver}}.apk",
  "archs": [
    "aarch64",
    "armhf",
    "armv7",
    "mips64",
    "mips64el",
    "ppc64le",
    "s390x",
    "x86",
    "x86_64"
  ],
  "urlprefix": "https://dl-cdn.alpinelinux.org/alpine",
  "reponame": "main",
  "distroversion": "v3.7"
}