{
  "name": "clamav",
  "secfixes": {
    "0.100.3-r0": [
      "CVE-2019-1787",
      "CVE-2019-1788",
      "CVE-2019-1789"
    ],
    "0.100.2-r0": [
      "CVE-2018-15378",
      "CVE-2018-14680",
      "CVE-2018-14681",
      "CVE-2018-14682"
    ],
    "0.100.1-r0": [
      "CVE-2017-16932",
      "CVE-2018-0360",
      "CVE-2018-0361"
    ],
    "0.99.4-r0": [
      "CVE-2018-0202",
      "CVE-2018-1000085"
    ]
  },
  "apkurl": "{{urlprefix}}/{{distroversion}}/{{reponame}}/{{arch}}/{{pkg.name}}-{{pkg.ver}}.apk",
  "archs": [
    "aarch64",
    "armhf",
    "armv7",
    "mips64",
    "mips64el",
    "ppc64le",
    "s390x",
    "x86",
    "x86_64"
  ],
  "urlprefix": "https://dl-cdn.alpinelinux.org/alpine",
  "reponame": "main",
  "distroversion": "v3.7"
}