{
  "name": "gst-plugins-good",
  "secfixes": {
    "1.10.4-r0": [
      "CVE-2017-5840",
      "CVE-2017-5841",
      "CVE-2017-5845",
      "CVE-2016-9634",
      "CVE-2016-9635",
      "CVE-2016-9636",
      "CVE-2016-9808",
      "CVE-2016-10198",
      "CVE-2016-10199"
    ]
  },
  "apkurl": "{{urlprefix}}/{{distroversion}}/{{reponame}}/{{arch}}/{{pkg.name}}-{{pkg.ver}}.apk",
  "archs": [
    "aarch64",
    "armhf",
    "armv7",
    "mips64",
    "mips64el",
    "ppc64le",
    "s390x",
    "x86",
    "x86_64"
  ],
  "urlprefix": "https://dl-cdn.alpinelinux.org/alpine",
  "reponame": "main",
  "distroversion": "v3.7"
}