{
  "name": "openjpeg",
  "secfixes": {
    "2.3.0-r2": [
      "CVE-2018-5785"
    ],
    "2.3.0-r1": [
      "CVE-2018-14423",
      "CVE-2018-6616",
      "CVE-2017-17480",
      "CVE-2018-18088"
    ],
    "2.3.0-r0": [
      "CVE-2017-14039"
    ],
    "2.2.0-r2": [
      "CVE-2017-14040",
      "CVE-2017-14041",
      "CVE-2017-14151",
      "CVE-2017-14152",
      "CVE-2017-14164"
    ],
    "2.2.0-r1": [
      "CVE-2017-12982"
    ],
    "2.1.2-r1": [
      "CVE-2016-9580",
      "CVE-2016-9581"
    ]
  },
  "apkurl": "{{urlprefix}}/{{distroversion}}/{{reponame}}/{{arch}}/{{pkg.name}}-{{pkg.ver}}.apk",
  "archs": [
    "aarch64",
    "armhf",
    "armv7",
    "mips64",
    "mips64el",
    "ppc64le",
    "s390x",
    "x86",
    "x86_64"
  ],
  "urlprefix": "https://dl-cdn.alpinelinux.org/alpine",
  "reponame": "main",
  "distroversion": "v3.7"
}