{
  "name": "openldap",
  "secfixes": {
    "2.4.48-r0": [
      "CVE-2019-13565",
      "CVE-2019-13057"
    ],
    "2.4.46-r0": [
      "CVE-2017-14159",
      "CVE-2017-17740"
    ],
    "2.4.44-r5": [
      "CVE-2017-9287"
    ],
    "": [

    ]
  },
  "apkurl": "{{urlprefix}}/{{distroversion}}/{{reponame}}/{{arch}}/{{pkg.name}}-{{pkg.ver}}.apk",
  "archs": [
    "aarch64",
    "armhf",
    "armv7",
    "mips64",
    "mips64el",
    "ppc64le",
    "s390x",
    "x86",
    "x86_64"
  ],
  "urlprefix": "https://dl-cdn.alpinelinux.org/alpine",
  "reponame": "main",
  "distroversion": "v3.7"
}