{
  "name": "sdl",
  "secfixes": {
    "1.2.15-r9": [
      "CVE-2019-13616"
    ],
    "1.2.15-r8": [
      "CVE-2019-7572",
      "CVE-2019-7573",
      "CVE-2019-7574",
      "CVE-2019-7575",
      "CVE-2019-7576",
      "CVE-2019-7577",
      "CVE-2019-7578",
      "CVE-2019-7635",
      "CVE-2019-7636",
      "CVE-2019-7637",
      "CVE-2019-7638"
    ]
  },
  "apkurl": "{{urlprefix}}/{{distroversion}}/{{reponame}}/{{arch}}/{{pkg.name}}-{{pkg.ver}}.apk",
  "archs": [
    "aarch64",
    "armhf",
    "armv7",
    "mips64",
    "mips64el",
    "ppc64le",
    "s390x",
    "x86",
    "x86_64"
  ],
  "urlprefix": "https://dl-cdn.alpinelinux.org/alpine",
  "reponame": "main",
  "distroversion": "v3.7"
}