{
  "name": "sqlite",
  "secfixes": {
    "3.25.3-r1": [
      "CVE-2019-8457"
    ],
    "3.25.3-r0": [
      "CVE-2018-20346"
    ],
    "3.21.0-r1": [
      "CVE-2018-8740"
    ],
    "": [

    ]
  },
  "apkurl": "{{urlprefix}}/{{distroversion}}/{{reponame}}/{{arch}}/{{pkg.name}}-{{pkg.ver}}.apk",
  "archs": [
    "aarch64",
    "armhf",
    "armv7",
    "mips64",
    "mips64el",
    "ppc64le",
    "s390x",
    "x86",
    "x86_64"
  ],
  "urlprefix": "https://dl-cdn.alpinelinux.org/alpine",
  "reponame": "main",
  "distroversion": "v3.7"
}