{
  "name": "ffmpeg",
  "secfixes": {
    "4.4.1-r0": [
      "CVE-2020-20446",
      "CVE-2020-20453",
      "CVE-2020-22015",
      "CVE-2020-22019",
      "CVE-2020-22021",
      "CVE-2020-22037",
      "CVE-2021-38114",
      "CVE-2021-38171",
      "CVE-2021-38291"
    ],
    "4.4-r1": [
      "CVE-2021-33815"
    ],
    "4.4-r0": [
      "CVE-2020-20450",
      "CVE-2020-21041",
      "CVE-2020-22038",
      "CVE-2020-22042",
      "CVE-2020-24020",
      "CVE-2021-30123"
    ],
    "4.3.2-r0": [
      "CVE-2020-35964",
      "CVE-2020-35965"
    ],
    "4.3.1-r0": [
      "CVE-2020-14212"
    ],
    "4.3-r0": [
      "CVE-2020-13904",
      "CVE-2020-12284"
    ],
    "4.2.1-r0": [
      "CVE-2019-15942"
    ],
    "4.2-r0": [
      "CVE-2019-17539",
      "CVE-2019-17542"
    ],
    "4.1.4-r0": [
      "CVE-2019-12730"
    ],
    "4.1.3-r0": [
      "CVE-2019-9718",
      "CVE-2019-9721",
      "CVE-2019-11338",
      "CVE-2019-11339"
    ],
    "4.1.1-r0": [
      "CVE-2019-1000016"
    ],
    "4.1-r0": [
      "CVE-2018-13305",
      "CVE-2018-15822"
    ],
    "4.0.2-r0": [
      "CVE-2018-13301",
      "CVE-2018-13303",
      "CVE-2018-13304",
      "CVE-2018-1999010",
      "CVE-2018-1999011",
      "CVE-2018-1999012",
      "CVE-2018-1999013",
      "CVE-2018-1999014",
      "CVE-2018-1999015"
    ],
    "4.0.1-r0": [
      "CVE-2018-12459",
      "CVE-2018-12460"
    ],
    "4.0.0-r0": [
      "CVE-2018-6912",
      "CVE-2018-7757",
      "CVE-2018-9841"
    ],
    "3.4.4-r0": [
      "CVE-2018-14395"
    ],
    "3.4.3-r0": [
      "CVE-2018-7557",
      "CVE-2018-7751",
      "CVE-2018-10001",
      "CVE-2018-12458",
      "CVE-2018-13300",
      "CVE-2018-13302",
      "CVE-2018-14394"
    ],
    "3.3.4-r0": [
      "CVE-2017-14054",
      "CVE-2017-14055",
      "CVE-2017-14056",
      "CVE-2017-14057",
      "CVE-2017-14058",
      "CVE-2017-14059",
      "CVE-2017-14169",
      "CVE-2017-14170",
      "CVE-2017-14171",
      "CVE-2017-14222",
      "CVE-2017-14223",
      "CVE-2017-14225"
    ]
  },
  "apkurl": "{{urlprefix}}/{{distroversion}}/{{reponame}}/{{arch}}/{{pkg.name}}-{{pkg.ver}}.apk",
  "archs": [
    "aarch64",
    "armhf",
    "armv7",
    "mips64",
    "mips64el",
    "ppc64le",
    "s390x",
    "x86",
    "x86_64"
  ],
  "urlprefix": "https://dl-cdn.alpinelinux.org/alpine",
  "reponame": "community",
  "distroversion": "vedge"
}