{
  "name": "knot-resolver",
  "secfixes": {
    "5.1.1-r0": [
      "CVE-2020-12667"
    ],
    "4.3.0-r0": [
      "CVE-2019-19331"
    ],
    "4.1.0-r0": [
      "CVE-2019-10190",
      "CVE-2019-10191"
    ],
    "2.3.0-r0": [
      "CVE-2018-1110"
    ]
  },
  "apkurl": "{{urlprefix}}/{{distroversion}}/{{reponame}}/{{arch}}/{{pkg.name}}-{{pkg.ver}}.apk",
  "archs": [
    "aarch64",
    "mips64",
    "mips64el",
    "ppc64le",
    "x86_64"
  ],
  "urlprefix": "https://dl-cdn.alpinelinux.org/alpine",
  "reponame": "community",
  "distroversion": "vedge"
}