{
  "name": "lrzip",
  "secfixes": {
    "0.650-r0": [
      "CVE-2022-28044",
      "CVE-2022-26291"
    ],
    "0.640-r0": [
      "CVE-2021-27347",
      "CVE-2021-27345",
      "CVE-2020-25467"
    ]
  },
  "apkurl": "{{urlprefix}}/{{distroversion}}/{{reponame}}/{{arch}}/{{pkg.name}}-{{pkg.ver}}.apk",
  "archs": [
    "aarch64",
    "armhf",
    "armv7",
    "mips64",
    "mips64el",
    "ppc64le",
    "s390x",
    "x86",
    "x86_64"
  ],
  "urlprefix": "https://dl-cdn.alpinelinux.org/alpine",
  "reponame": "community",
  "distroversion": "vedge"
}