{
  "name": "nss",
  "secfixes": {
    "3.76.1-r0": [
      "CVE-2022-1097"
    ],
    "3.73-r0": [
      "CVE-2021-43527"
    ],
    "3.58-r0": [
      "CVE-2020-25648"
    ],
    "3.55-r0": [
      "CVE-2020-12400",
      "CVE-2020-12401",
      "CVE-2020-12403",
      "CVE-2020-6829"
    ],
    "3.53.1-r0": [
      "CVE-2020-12402"
    ],
    "3.49-r0": [
      "CVE-2019-17023"
    ],
    "3.47.1-r0": [
      "CVE-2019-11745"
    ],
    "3.41-r0": [
      "CVE-2018-12404"
    ],
    "3.39-r0": [
      "CVE-2018-12384"
    ]
  },
  "apkurl": "{{urlprefix}}/{{distroversion}}/{{reponame}}/{{arch}}/{{pkg.name}}-{{pkg.ver}}.apk",
  "archs": [
    "aarch64",
    "armhf",
    "armv7",
    "mips64",
    "mips64el",
    "ppc64le",
    "s390x",
    "x86",
    "x86_64"
  ],
  "urlprefix": "https://dl-cdn.alpinelinux.org/alpine",
  "reponame": "community",
  "distroversion": "vedge"
}