{
  "name": "podman",
  "secfixes": {
    "4.0.3-r0": [
      "CVE-2022-27649"
    ],
    "3.4.4-r0": [
      "CVE-2021-4024",
      "CVE-2021-41190"
    ],
    "3.2.3-r0": [
      "CVE-2021-3602"
    ],
    "3.0.0-r0": [
      "CVE-2021-20199"
    ],
    "2.0.5-r0": [
      "CVE-2020-14370"
    ],
    "1.8.1-r0": [
      "CVE-2020-1726"
    ]
  },
  "apkurl": "{{urlprefix}}/{{distroversion}}/{{reponame}}/{{arch}}/{{pkg.name}}-{{pkg.ver}}.apk",
  "archs": [
    "aarch64",
    "armhf",
    "armv7",
    "mips64",
    "mips64el",
    "ppc64le",
    "x86",
    "x86_64"
  ],
  "urlprefix": "https://dl-cdn.alpinelinux.org/alpine",
  "reponame": "community",
  "distroversion": "vedge"
}