{
  "name": "sdl2",
  "secfixes": {
    "2.0.18-r0": [
      "CVE-2021-33657"
    ],
    "2.0.10-r0": [
      "CVE-2019-7572",
      "CVE-2019-7573",
      "CVE-2019-7574",
      "CVE-2019-7575",
      "CVE-2019-7576",
      "CVE-2019-7578",
      "CVE-2019-7635",
      "CVE-2019-7636",
      "CVE-2019-7637",
      "CVE-2019-7638"
    ]
  },
  "apkurl": "{{urlprefix}}/{{distroversion}}/{{reponame}}/{{arch}}/{{pkg.name}}-{{pkg.ver}}.apk",
  "archs": [
    "aarch64",
    "armhf",
    "armv7",
    "mips64",
    "mips64el",
    "ppc64le",
    "s390x",
    "x86",
    "x86_64"
  ],
  "urlprefix": "https://dl-cdn.alpinelinux.org/alpine",
  "reponame": "community",
  "distroversion": "vedge"
}