{
  "name": "libgit2-0.27",
  "secfixes": {
    "0.27.4-r0": [
      "CVE-2018-15501"
    ],
    "0.27.3-r0": [
      "CVE-2018-10887",
      "CVE-2018-10888"
    ],
    "0.25.1-r0": [
      "CVE-2016-10128",
      "CVE-2016-10129",
      "CVE-2016-10130"
    ],
    "0.24.3-r0": [
      "CVE-2016-8568",
      "CVE-2016-8569"
    ]
  },
  "apkurl": "{{urlprefix}}/{{distroversion}}/{{reponame}}/{{arch}}/{{pkg.name}}-{{pkg.ver}}.apk",
  "archs": [
    "aarch64",
    "armhf",
    "armv7",
    "mips64",
    "mips64el",
    "ppc64le",
    "s390x",
    "x86",
    "x86_64"
  ],
  "urlprefix": "https://dl-cdn.alpinelinux.org/alpine",
  "reponame": "community",
  "distroversion": "v3.10"
}