{
  "name": "pdns",
  "secfixes": {
    "4.1.14-r0": [
      "CVE-2020-17482"
    ],
    "4.1.11-r0": [
      "CVE-2019-10203"
    ],
    "4.1.10-r0": [
      "CVE-2019-10163",
      "CVE-2019-10162"
    ],
    "4.1.7-r0": [
      "CVE-2019-3871"
    ],
    "4.1.5-r0": [
      "CVE-2018-10851",
      "CVE-2018-14626"
    ],
    "4.0.5-r0": [
      "CVE-2017-15091"
    ]
  },
  "apkurl": "{{urlprefix}}/{{distroversion}}/{{reponame}}/{{arch}}/{{pkg.name}}-{{pkg.ver}}.apk",
  "archs": [
    "aarch64",
    "armhf",
    "armv7",
    "mips64",
    "mips64el",
    "ppc64le",
    "s390x",
    "x86",
    "x86_64"
  ],
  "urlprefix": "https://dl-cdn.alpinelinux.org/alpine",
  "reponame": "community",
  "distroversion": "v3.10"
}